code/verilog/dump.vcd
$date
	Sun May 31 23:13:00 2026
$end
$version
	Icarus Verilog
$end
$timescale
	1s
$end
$scope module tb $end
$var wire 1 ! data_out_valid $end
$var wire 72 " data_out [71:0] $end
$var parameter 32 # DATA_WIDTH $end
$var parameter 32 $ IMAGE_HEIGHT $end
$var parameter 32 % IMAGE_WIDTH $end
$var parameter 32 & KERNEL_SIZE $end
$var reg 1 ' clk $end
$var reg 8 ( data_in [7:0] $end
$var reg 1 ) data_in_valid $end
$var reg 1 * rst $end
$var integer 32 + i [31:0] $end
$scope module DUT $end
$var wire 1 ' clk $end
$var wire 8 , data_in [7:0] $end
$var wire 1 ) data_in_valid $end
$var wire 1 * rst $end
$var wire 24 - line_buf_3_data_out [23:0] $end
$var wire 24 . line_buf_2_data_out [23:0] $end
$var wire 24 / line_buf_1_data_out [23:0] $end
$var wire 24 0 line_buf_0_data_out [23:0] $end
$var parameter 32 1 DATA_WIDTH $end
$var parameter 32 2 IDLE $end
$var parameter 32 3 IMAGE_WIDTH $end
$var parameter 32 4 KERNEL_SIZE $end
$var parameter 32 5 READ_BUFFER $end
$var parameter 32 6 TOTAL_COUNT_WIDTH $end
$var reg 2 7 current_line_buffer [1:0] $end
$var reg 2 8 current_read_line_buffer [1:0] $end
$var reg 72 9 data_out [71:0] $end
$var reg 1 ! data_out_valid $end
$var reg 4 : line_buf_data_valid [3:0] $end
$var reg 4 ; line_buf_read_data [3:0] $end
$var reg 3 < pixel_counter [2:0] $end
$var reg 3 = read_counter [2:0] $end
$var reg 1 > read_line_buffer $end
$var reg 2 ? read_state [1:0] $end
$var reg 5 @ total_pixel_counter [4:0] $end
$scope module line_buf_0 $end
$var wire 1 ' clk $end
$var wire 8 A data_in [7:0] $end
$var wire 1 B data_in_valid $end
$var wire 1 C read_data $end
$var wire 1 * rst $end
$var wire 24 D data_out [23:0] $end
$var parameter 32 E DATA_WIDTH $end
$var parameter 32 F IMAGE_WIDTH $end
$var parameter 32 G KERNEL_SIZE $end
$var reg 8 H d0 [7:0] $end
$var reg 8 I d1 [7:0] $end
$var reg 8 J d2 [7:0] $end
$var reg 3 K r_ptr [2:0] $end
$var reg 3 L w_ptr [2:0] $end
$upscope $end
$scope module line_buf_1 $end
$var wire 1 ' clk $end
$var wire 8 M data_in [7:0] $end
$var wire 1 N data_in_valid $end
$var wire 1 O read_data $end
$var wire 1 * rst $end
$var wire 24 P data_out [23:0] $end
$var parameter 32 Q DATA_WIDTH $end
$var parameter 32 R IMAGE_WIDTH $end
$var parameter 32 S KERNEL_SIZE $end
$var reg 8 T d0 [7:0] $end
$var reg 8 U d1 [7:0] $end
$var reg 8 V d2 [7:0] $end
$var reg 3 W r_ptr [2:0] $end
$var reg 3 X w_ptr [2:0] $end
$upscope $end
$scope module line_buf_2 $end
$var wire 1 ' clk $end
$var wire 8 Y data_in [7:0] $end
$var wire 1 Z data_in_valid $end
$var wire 1 [ read_data $end
$var wire 1 * rst $end
$var wire 24 \ data_out [23:0] $end
$var parameter 32 ] DATA_WIDTH $end
$var parameter 32 ^ IMAGE_WIDTH $end
$var parameter 32 _ KERNEL_SIZE $end
$var reg 8 ` d0 [7:0] $end
$var reg 8 a d1 [7:0] $end
$var reg 8 b d2 [7:0] $end
$var reg 3 c r_ptr [2:0] $end
$var reg 3 d w_ptr [2:0] $end
$upscope $end
$scope module line_buf_3 $end
$var wire 1 ' clk $end
$var wire 8 e data_in [7:0] $end
$var wire 1 f data_in_valid $end
$var wire 1 g read_data $end
$var wire 1 * rst $end
$var wire 24 h data_out [23:0] $end
$var parameter 32 i DATA_WIDTH $end
$var parameter 32 j IMAGE_WIDTH $end
$var parameter 32 k KERNEL_SIZE $end
$var reg 8 l d0 [7:0] $end
$var reg 8 m d1 [7:0] $end
$var reg 8 n d2 [7:0] $end
$var reg 3 o r_ptr [2:0] $end
$var reg 3 p w_ptr [2:0] $end
$upscope $end
$upscope $end
$upscope $end
$enddefinitions $end
$comment Show the parameter values. $end
$dumpall
b11 k
b1000 j
b1000 i
b11 _
b1000 ^
b1000 ]
b11 S
b1000 R
b1000 Q
b11 G
b1000 F
b1000 E
b101 6
b1 5
b11 4
b1000 3
b0 2
b1000 1
b11 &
b1000 %
b1000 $
b1000 #
$end
#0
$dumpvars
bx p
bx o
bx n
bx m
bx l
bx h
xg
0f
bx e
bx d
bx c
bx b
bx a
bx `
bx \
x[
0Z
bx Y
bx X
bx W
bx V
bx U
bx T
bx P
xO
0N
bx M
bx L
bx K
bx J
bx I
bx H
bx D
xC
0B
bx A
bx @
bx ?
x>
bx =
bx <
bx ;
b0 :
bx 9
bx 8
bx 7
bx 0
bx /
bx .
bx -
bx ,
bx +
0*
0)
bx (
0'
bx "
x!
$end
#5
0g
0[
0O
0C
b0 ;
b0 "
b0 9
b0 L
b0 J
b0 I
b0 0
b0 D
b0 H
b0 K
b0 X
b0 V
b0 U
b0 /
b0 P
b0 T
b0 W
b0 d
b0 b
b0 a
b0 .
b0 \
b0 `
b0 c
b0 p
b0 n
b0 m
b0 -
b0 h
b0 l
b0 o
b0 @
0!
0>
b0 ?
b0 <
b0 7
b0 =
b0 8
1'
#10
1B
b1 :
1)
b0 (
b0 ,
b0 A
b0 M
b0 Y
b0 e
0'
b1 +
1*
#15
b1 <
b1 @
b1 L
1'
#20
b10 +
b1 (
b1 ,
b1 A
b1 M
b1 Y
b1 e
0'
#25
b10 L
b10 @
b10 <
1'
#30
b11 +
b10 (
b10 ,
b10 A
b10 M
b10 Y
b10 e
0'
#35
b11 <
b11 @
b11 L
1'
#40
b100 +
b11 (
b11 ,
b11 A
b11 M
b11 Y
b11 e
0'
#45
b100 L
b100 @
b100 <
1'
#50
b101 +
b100 (
b100 ,
b100 A
b100 M
b100 Y
b100 e
0'
#55
b101 <
b101 @
b101 L
1'
#60
b110 +
b101 (
b101 ,
b101 A
b101 M
b101 Y
b101 e
0'
#65
b110 L
b110 @
b110 <
1'
#70
b111 +
b110 (
b110 ,
b110 A
b110 M
b110 Y
b110 e
0'
#75
b111 <
b111 @
b111 L
1'
#80
b1000 +
b111 (
b111 ,
b111 A
b111 M
b111 Y
b111 e
0'
#85
1N
0B
b10 :
b0 L
b1000 @
b0 <
b1 7
1'
#90
b1001 +
b1000 (
b1000 ,
b1000 A
b1000 M
b1000 Y
b1000 e
0'
#95
b1 <
b1001 @
b1 X
1'
#100
b1010 +
b1001 (
b1001 ,
b1001 A
b1001 M
b1001 Y
b1001 e
0'
#105
b10 X
b1010 @
b10 <
1'
#110
b1011 +
b1010 (
b1010 ,
b1010 A
b1010 M
b1010 Y
b1010 e
0'
#115
b11 <
b1011 @
b11 X
1'
#120
b1100 +
b1011 (
b1011 ,
b1011 A
b1011 M
b1011 Y
b1011 e
0'
#125
b100 X
b1100 @
b100 <
1'
#130
b1101 +
b1100 (
b1100 ,
b1100 A
b1100 M
b1100 Y
b1100 e
0'
#135
b101 <
b1101 @
b101 X
1'
#140
b1110 +
b1101 (
b1101 ,
b1101 A
b1101 M
b1101 Y
b1101 e
0'
#145
b110 X
b1110 @
b110 <
1'
#150
b1111 +
b1110 (
b1110 ,
b1110 A
b1110 M
b1110 Y
b1110 e
0'
#155
b111 <
b1111 @
b111 X
1'
#160
b10000 +
b1111 (
b1111 ,
b1111 A
b1111 M
b1111 Y
b1111 e
0'
#165
1Z
0N
b100 :
b0 X
b10000 @
b0 <
b10 7
1'
#170
b10001 +
b10000 (
b10000 ,
b10000 A
b10000 M
b10000 Y
b10000 e
0'
#175
b1 <
b10001 @
b1 d
1'
#180
b10010 +
b10001 (
b10001 ,
b10001 A
b10001 M
b10001 Y
b10001 e
0'
#185
b10 d
b10010 @
b10 <
1'
#190
b10011 +
b10010 (
b10010 ,
b10010 A
b10010 M
b10010 Y
b10010 e
0'
#195
b11 <
b10011 @
b11 d
1'
#200
b10100 +
b10011 (
b10011 ,
b10011 A
b10011 M
b10011 Y
b10011 e
0'
#205
b100 d
b10100 @
b100 <
1'
#210
b10101 +
b10100 (
b10100 ,
b10100 A
b10100 M
b10100 Y
b10100 e
0'
#215
b101 <
b10101 @
b101 d
1'
#220
b10110 +
b10101 (
b10101 ,
b10101 A
b10101 M
b10101 Y
b10101 e
0'
#225
b110 d
b10110 @
b110 <
1'
#230
b10111 +
b10110 (
b10110 ,
b10110 A
b10110 M
b10110 Y
b10110 e
0'
#235
b111 <
b10111 @
b111 d
1'
#240
b11000 +
b10111 (
b10111 ,
b10111 A
b10111 M
b10111 Y
b10111 e
0'
#245
1f
0Z
b1000 :
b0 d
b11000 @
b0 <
b11 7
1'
#250
b11001 +
b11000 (
b11000 ,
b11000 A
b11000 M
b11000 Y
b11000 e
0'
#255
1[
1O
1C
b111 ;
b1 <
b1 ?
1>
b11001 @
b1 p
1'
#260
b11010 +
b11001 (
b11001 ,
b11001 A
b11001 M
b11001 Y
b11001 e
0'
#265
b100000001000100010010000010000000100100001010000000000000000100000010 "
b100000001000100010010000010000000100100001010000000000000000100000010 9
b10 J
b100000010 0
b100000010 D
b1 I
b1 K
b1010 V
b1001 U
b10000000100100001010 /
b10000000100100001010 P
b1000 T
b1 W
b10010 b
b10001 a
b100000001000100010010 .
b100000001000100010010 \
b10000 `
b1 c
b10 p
1!
b10 <
b1 =
1'
#270
b11011 +
b11010 (
b11010 ,
b11010 A
b11010 M
b11010 Y
b11010 e
0'
#275
b100010001001000010011000010010000101000001011000000010000001000000011 "
b100010001001000010011000010010000101000001011000000010000001000000011 9
b10 =
b11 <
b11 p
b10 c
b10011 b
b10010 a
b100010001001000010011 .
b100010001001000010011 \
b10001 `
b10 W
b1011 V
b1010 U
b10010000101000001011 /
b10010000101000001011 P
b1001 T
b10 K
b11 J
b10 I
b10000001000000011 0
b10000001000000011 D
b1 H
1'
#280
b11100 +
b11011 (
b11011 ,
b11011 A
b11011 M
b11011 Y
b11011 e
0'
#285
b100100001001100010100000010100000101100001100000000100000001100000100 "
b100100001001100010100000010100000101100001100000000100000001100000100 9
b100 J
b11 I
b100000001100000100 0
b100000001100000100 D
b10 H
b11 K
b1100 V
b1011 U
b10100000101100001100 /
b10100000101100001100 P
b1010 T
b11 W
b10100 b
b10011 a
b100100001001100010100 .
b100100001001100010100 \
b10010 `
b11 c
b100 p
b100 <
b11 =
1'
#290
b11101 +
b11100 (
b11100 ,
b11100 A
b11100 M
b11100 Y
b11100 e
0'
#295
b100110001010000010101000010110000110000001101000000110000010000000101 "
b100110001010000010101000010110000110000001101000000110000010000000101 9
b100 =
b101 <
b101 p
b100 c
b10101 b
b10100 a
b100110001010000010101 .
b100110001010000010101 \
b10011 `
b100 W
b1101 V
b1100 U
b10110000110000001101 /
b10110000110000001101 P
b1011 T
b100 K
b101 J
b100 I
b110000010000000101 0
b110000010000000101 D
b11 H
1'
#300
b11110 +
b11101 (
b11101 ,
b11101 A
b11101 M
b11101 Y
b11101 e
0'
#305
b101000001010100010110000011000000110100001110000001000000010100000110 "
b101000001010100010110000011000000110100001110000001000000010100000110 9
b110 J
b101 I
b1000000010100000110 0
b1000000010100000110 D
b100 H
b101 K
b1110 V
b1101 U
b11000000110100001110 /
b11000000110100001110 P
b1100 T
b101 W
b10110 b
b10101 a
b101000001010100010110 .
b101000001010100010110 \
b10100 `
b101 c
b110 p
b110 <
b101 =
1'
#310
b11111 +
b11110 (
b11110 ,
b11110 A
b11110 M
b11110 Y
b11110 e
0'
#315
b110 =
b111 <
b111 p
b110 c
b110 W
b110 K
1'
#320
b100000 +
b11111 (
b11111 ,
b11111 A
b11111 M
b11111 Y
b11111 e
0'
#325
1B
0f
b1 :
b111 K
b111 W
b111 c
b0 p
0!
b0 <
b0 7
b111 =
1'
#330
b100001 +
b100000 (
b100000 ,
b100000 A
b100000 M
b100000 Y
b100000 e
0'
#335
0[
0O
0C
b101000001010100010110000011000000110100001110 "
b101000001010100010110000011000000110100001110 9
b0 ;
b1 8
b0 =
b1 <
0>
b0 ?
b0 c
b0 W
b0 K
b1 L
1'
#340
b100010 +
b100001 (
b100001 ,
b100001 A
b100001 M
b100001 Y
b100001 e
0'
#345
1g
1[
1O
b1110 ;
b10 L
b11010 @
b1 ?
1>
b10 <
1'
#350
b100011 +
b100010 (
b100010 ,
b100010 A
b100010 M
b100010 Y
b100010 e
0'
#355
b110000001100100011010000100000001000100010010000010000000100100001010 "
b110000001100100011010000100000001000100010010000010000000100100001010 9
b1 =
b11 <
1!
b1 o
b11010 n
b11001 m
b110000001100100011010 -
b110000001100100011010 h
b11000 l
b1 c
b10010 b
b10001 a
b100000001000100010010 .
b100000001000100010010 \
b10000 `
b1 W
b1010 V
b1001 U
b10000000100100001010 /
b10000000100100001010 P
b1000 T
b11 L
1'
#360
b100100 +
b100011 (
b100011 ,
b100011 A
b100011 M
b100011 Y
b100011 e
0'
#365
b110010001101000011011000100010001001000010011000010010000101000001011 "
b110010001101000011011000100010001001000010011000010010000101000001011 9
b100 L
b1011 V
b1010 U
b10010000101000001011 /
b10010000101000001011 P
b1001 T
b10 W
b10011 b
b10010 a
b100010001001000010011 .
b100010001001000010011 \
b10001 `
b10 c
b11011 n
b11010 m
b110010001101000011011 -
b110010001101000011011 h
b11001 l
b10 o
b100 <
b10 =
1'
#370
b100101 +
b100100 (
b100100 ,
b100100 A
b100100 M
b100100 Y
b100100 e
0'
#375
b110100001101100011100000100100001001100010100000010100000101100001100 "
b110100001101100011100000100100001001100010100000010100000101100001100 9
b11 =
b101 <
b11 o
b11100 n
b11011 m
b110100001101100011100 -
b110100001101100011100 h
b11010 l
b11 c
b10100 b
b10011 a
b100100001001100010100 .
b100100001001100010100 \
b10010 `
b11 W
b1100 V
b1011 U
b10100000101100001100 /
b10100000101100001100 P
b1010 T
b101 L
1'
#380
b100110 +
b100101 (
b100101 ,
b100101 A
b100101 M
b100101 Y
b100101 e
0'
#385
b110110001110000011101000100110001010000010101000010110000110000001101 "
b110110001110000011101000100110001010000010101000010110000110000001101 9
b110 L
b1101 V
b1100 U
b10110000110000001101 /
b10110000110000001101 P
b1011 T
b100 W
b10101 b
b10100 a
b100110001010000010101 .
b100110001010000010101 \
b10011 `
b100 c
b11101 n
b11100 m
b110110001110000011101 -
b110110001110000011101 h
b11011 l
b100 o
b110 <
b100 =
1'
#390
b100111 +
b100110 (
b100110 ,
b100110 A
b100110 M
b100110 Y
b100110 e
0'
#395
b111000001110100011110000101000001010100010110000011000000110100001110 "
b111000001110100011110000101000001010100010110000011000000110100001110 9
b101 =
b111 <
b101 o
b11110 n
b11101 m
b111000001110100011110 -
b111000001110100011110 h
b11100 l
b101 c
b10110 b
b10101 a
b101000001010100010110 .
b101000001010100010110 \
b10100 `
b101 W
b1110 V
b1101 U
b11000000110100001110 /
b11000000110100001110 P
b1100 T
b111 L
1'
#400
b101000 +
b100111 (
b100111 ,
b100111 A
b100111 M
b100111 Y
b100111 e
0'
#405
1N
0B
b10 :
b0 L
b110 W
b110 c
b110 o
b0 <
b1 7
b110 =
1'
#410
b101001 +
b101000 (
b101000 ,
b101000 A
b101000 M
b101000 Y
b101000 e
0'
#415
b111 =
b1 <
0!
b111 o
b111 c
b111 W
b1 X
1'
#420
b101010 +
b101001 (
b101001 ,
b101001 A
b101001 M
b101001 Y
b101001 e
0'
#425
0g
0[
0O
b0 ;
b1000000010100000110000111000001110100011110000101000001010100010110 "
b1000000010100000110000111000001110100011110000101000001010100010110 9
b10 X
b0 W
b0 c
b0 o
0>
b0 ?
b10 <
b0 =
b10 8
1'
#430
b101011 +
b101010 (
b101010 ,
b101010 A
b101010 M
b101010 Y
b101010 e
0'
#435
1g
1[
1C
b1101 ;
b11 <
b1 ?
1>
b11011 @
b11 X
1'
#440
b101100 +
b101011 (
b101011 ,
b101011 A
b101011 M
b101011 Y
b101011 e
0'
#445
b1000000010000100100010000110000001100100011010000100000001000100010010 "
b1000000010000100100010000110000001100100011010000100000001000100010010 9
b100010 J
b100001 I
b1000000010000100100010 0
b1000000010000100100010 D
b100000 H
b1 K
b100 X
b10010 b
b10001 a
b100000001000100010010 .
b100000001000100010010 \
b10000 `
b1 c
b11010 n
b11001 m
b110000001100100011010 -
b110000001100100011010 h
b11000 l
b1 o
1!
b100 <
b1 =
1'
#450
b101101 +
b101100 (
b101100 ,
b101100 A
b101100 M
b101100 Y
b101100 e
0'
#455
b1000010010001000100011000110010001101000011011000100010001001000010011 "
b1000010010001000100011000110010001101000011011000100010001001000010011 9
b10 =
b101 <
b10 o
b11011 n
b11010 m
b110010001101000011011 -
b110010001101000011011 h
b11001 l
b10 c
b10011 b
b10010 a
b100010001001000010011 .
b100010001001000010011 \
b10001 `
b101 X
b10 K
b100011 J
b100010 I
b1000010010001000100011 0
b1000010010001000100011 D
b100001 H
1'
#460
b101110 +
b101101 (
b101101 ,
b101101 A
b101101 M
b101101 Y
b101101 e
0'
#465
b1000100010001100100100000110100001101100011100000100100001001100010100 "
b1000100010001100100100000110100001101100011100000100100001001100010100 9
b100100 J
b100011 I
b1000100010001100100100 0
b1000100010001100100100 D
b100010 H
b11 K
b110 X
b10100 b
b10011 a
b100100001001100010100 .
b100100001001100010100 \
b10010 `
b11 c
b11100 n
b11011 m
b110100001101100011100 -
b110100001101100011100 h
b11010 l
b11 o
b110 <
b11 =
1'
#470
b101111 +
b101110 (
b101110 ,
b101110 A
b101110 M
b101110 Y
b101110 e
0'
#475
b1000110010010000100101000110110001110000011101000100110001010000010101 "
b1000110010010000100101000110110001110000011101000100110001010000010101 9
b100 =
b111 <
b100 o
b11101 n
b11100 m
b110110001110000011101 -
b110110001110000011101 h
b11011 l
b100 c
b10101 b
b10100 a
b100110001010000010101 .
b100110001010000010101 \
b10011 `
b111 X
b100 K
b100101 J
b100100 I
b1000110010010000100101 0
b1000110010010000100101 D
b100011 H
1'
#480
b110000 +
b101111 (
b101111 ,
b101111 A
b101111 M
b101111 Y
b101111 e
0'
#485
1Z
0N
b1001000010010100100110000111000001110100011110000101000001010100010110 "
b1001000010010100100110000111000001110100011110000101000001010100010110 9
b100 :
b100110 J
b100101 I
b1001000010010100100110 0
b1001000010010100100110 D
b100100 H
b101 K
b0 X
b10110 b
b10101 a
b101000001010100010110 .
b101000001010100010110 \
b10100 `
b101 c
b11110 n
b11101 m
b111000001110100011110 -
b111000001110100011110 h
b11100 l
b101 o
b0 <
b10 7
b101 =
1'
#490
b110001 +
b110000 (
b110000 ,
b110000 A
b110000 M
b110000 Y
b110000 e
0'
#495
b110 =
b1 <
b110 o
b110 c
b1 d
b110 K
1'
#500
b110010 +
b110001 (
b110001 ,
b110001 A
b110001 M
b110001 Y
b110001 e
0'
#505
b111 K
b10 d
b111 c
b111 o
0!
b10 <
b111 =
1'
#510
b110011 +
b110010 (
b110010 ,
b110010 A
b110010 M
b110010 Y
b110010 e
0'
#515
0g
0[
0C
b11000000110100001110001001000010010100100110000111000001110100011110 "
b11000000110100001110001001000010010100100110000111000001110100011110 9
b0 ;
b11 8
b0 =
b11 <
0>
b0 ?
b0 o
b0 c
b11 d
b0 K
1'
#520
b110100 +
b110011 (
b110011 ,
b110011 A
b110011 M
b110011 Y
b110011 e
0'
#525
1g
1O
1C
b1011 ;
b100 d
b11100 @
b1 ?
1>
b100 <
1'
#530
b110101 +
b110100 (
b110100 ,
b110100 A
b110100 M
b110100 Y
b110100 e
0'
#535
b1010000010100100101010001000000010000100100010000110000001100100011010 "
b1010000010100100101010001000000010000100100010000110000001100100011010 9
b1 =
b101 <
1!
b1 o
b11010 n
b11001 m
b110000001100100011010 -
b110000001100100011010 h
b11000 l
b101 d
b1 W
b101010 V
b101001 U
b1010000010100100101010 /
b1010000010100100101010 P
b101000 T
b1 K
b100010 J
b100001 I
b1000000010000100100010 0
b1000000010000100100010 D
b100000 H
1'
#540
b110110 +
b110101 (
b110101 ,
b110101 A
b110101 M
b110101 Y
b110101 e
0'
#545
b1010010010101000101011001000010010001000100011000110010001101000011011 "
b1010010010101000101011001000010010001000100011000110010001101000011011 9
b100011 J
b100010 I
b1000010010001000100011 0
b1000010010001000100011 D
b100001 H
b10 K
b101011 V
b101010 U
b1010010010101000101011 /
b1010010010101000101011 P
b101001 T
b10 W
b110 d
b11011 n
b11010 m
b110010001101000011011 -
b110010001101000011011 h
b11001 l
b10 o
b110 <
b10 =
1'
#550
b110111 +
b110110 (
b110110 ,
b110110 A
b110110 M
b110110 Y
b110110 e
0'
#555
b1010100010101100101100001000100010001100100100000110100001101100011100 "
b1010100010101100101100001000100010001100100100000110100001101100011100 9
b11 =
b111 <
b11 o
b11100 n
b11011 m
b110100001101100011100 -
b110100001101100011100 h
b11010 l
b111 d
b11 W
b101100 V
b101011 U
b1010100010101100101100 /
b1010100010101100101100 P
b101010 T
b11 K
b100100 J
b100011 I
b1000100010001100100100 0
b1000100010001100100100 D
b100010 H
1'
#560
b111000 +
b110111 (
b110111 ,
b110111 A
b110111 M
b110111 Y
b110111 e
0'
#565
1f
0Z
b1010110010110000101101001000110010010000100101000110110001110000011101 "
b1010110010110000101101001000110010010000100101000110110001110000011101 9
b1000 :
b100101 J
b100100 I
b1000110010010000100101 0
b1000110010010000100101 D
b100011 H
b100 K
b101101 V
b101100 U
b1010110010110000101101 /
b1010110010110000101101 P
b101011 T
b100 W
b0 d
b11101 n
b11100 m
b110110001110000011101 -
b110110001110000011101 h
b11011 l
b100 o
b0 <
b11 7
b100 =
1'
#570
b111001 +
b111000 (
b111000 ,
b111000 A
b111000 M
b111000 Y
b111000 e
0'
#575
b1011000010110100101110001001000010010100100110000111000001110100011110 "
b1011000010110100101110001001000010010100100110000111000001110100011110 9
b101 =
b1 <
b101 o
b11110 n
b11101 m
b111000001110100011110 -
b111000001110100011110 h
b11100 l
b1 p
b101 W
b101110 V
b101101 U
b1011000010110100101110 /
b1011000010110100101110 P
b101100 T
b101 K
b100110 J
b100101 I
b1001000010010100100110 0
b1001000010010100100110 D
b100100 H
1'
#580
b111010 +
b111001 (
b111001 ,
b111001 A
b111001 M
b111001 Y
b111001 e
0'
#585
b110 K
b110 W
b10 p
b110 o
b10 <
b110 =
1'
#590
b111011 +
b111010 (
b111010 ,
b111010 A
b111010 M
b111010 Y
b111010 e
0'
#595
b111 =
b11 <
0!
b111 o
b11 p
b111 W
b111 K
1'
#600
b111100 +
b111011 (
b111011 ,
b111011 A
b111011 M
b111011 Y
b111011 e
0'
#605
0g
0O
0C
b0 ;
b101000001010100010110001011000010110100101110001001000010010100100110 "
b101000001010100010110001011000010110100101110001001000010010100100110 9
b0 K
b0 W
b100 p
b0 o
0>
b0 ?
b100 <
b0 =
b0 8
1'
#610
b111101 +
b111100 (
b111100 ,
b111100 A
b111100 M
b111100 Y
b111100 e
0'
#615
1[
1O
1C
b111 ;
b101 <
b1 ?
1>
b11101 @
b101 p
1'
#620
b111110 +
b111101 (
b111101 ,
b111101 A
b111101 M
b111101 Y
b111101 e
0'
#625
b1100000011000100110010001010000010100100101010001000000010000100100010 "
b1100000011000100110010001010000010100100101010001000000010000100100010 9
b100010 J
b100001 I
b1000000010000100100010 0
b1000000010000100100010 D
b100000 H
b1 K
b101010 V
b101001 U
b1010000010100100101010 /
b1010000010100100101010 P
b101000 T
b1 W
b110010 b
b110001 a
b1100000011000100110010 .
b1100000011000100110010 \
b110000 `
b1 c
b110 p
1!
b110 <
b1 =
1'
#630
b111111 +
b111110 (
b111110 ,
b111110 A
b111110 M
b111110 Y
b111110 e
0'
#635
b1100010011001000110011001010010010101000101011001000010010001000100011 "
b1100010011001000110011001010010010101000101011001000010010001000100011 9
b10 =
b111 <
b111 p
b10 c
b110011 b
b110010 a
b1100010011001000110011 .
b1100010011001000110011 \
b110001 `
b10 W
b101011 V
b101010 U
b1010010010101000101011 /
b1010010010101000101011 P
b101001 T
b10 K
b100011 J
b100010 I
b1000010010001000100011 0
b1000010010001000100011 D
b100001 H
1'
#640
b1000000 +
b111111 (
b111111 ,
b111111 A
b111111 M
b111111 Y
b111111 e
0'
#645
1B
0f
b1100100011001100110100001010100010101100101100001000100010001100100100 "
b1100100011001100110100001010100010101100101100001000100010001100100100 9
b1 :
b100100 J
b100011 I
b1000100010001100100100 0
b1000100010001100100100 D
b100010 H
b11 K
b101100 V
b101011 U
b1010100010101100101100 /
b1010100010101100101100 P
b101010 T
b11 W
b110100 b
b110011 a
b1100100011001100110100 .
b1100100011001100110100 \
b110010 `
b11 c
b0 p
b0 <
b0 7
b11 =
1'
#650
0B
b0 :
0)
0'
#655
b1100110011010000110101001010110010110000101101001000110010010000100101 "
b1100110011010000110101001010110010110000101101001000110010010000100101 9
b100 =
b11100 @
b100 c
b110101 b
b110100 a
b1100110011010000110101 .
b1100110011010000110101 \
b110011 `
b100 W
b101101 V
b101100 U
b1010110010110000101101 /
b1010110010110000101101 P
b101011 T
b100 K
b100101 J
b100100 I
b1000110010010000100101 0
b1000110010010000100101 D
b100011 H
1'
#660
0'
#665
b1101000011010100110110001011000010110100101110001001000010010100100110 "
b1101000011010100110110001011000010110100101110001001000010010100100110 9
b100110 J
b100101 I
b1001000010010100100110 0
b1001000010010100100110 D
b100100 H
b101 K
b101110 V
b101101 U
b1011000010110100101110 /
b1011000010110100101110 P
b101100 T
b101 W
b110110 b
b110101 a
b1101000011010100110110 .
b1101000011010100110110 \
b110100 `
b101 c
b11011 @
b101 =
1'
#670
0'
#675
b110 =
b11010 @
b110 c
b110 W
b110 K
1'
#680
0'
#685
b111 K
b111 W
b111 c
b11001 @
0!
b111 =
1'
#690
0'
#695
0[
0O
0C
b111000001110100011110001101000011010100110110001011000010110100101110 "
b111000001110100011110001101000011010100110110001011000010110100101110 9
b0 ;
b1 8
b0 =
0>
b0 ?
b11000 @
b0 c
b0 W
b0 K
1'
#700
0'
#705
1g
1[
1O
b1110 ;
b1 ?
1>
1'
#710
0'
#715
b1110000011100100111010001100000011000100110010001010000010100100101010 "
b1110000011100100111010001100000011000100110010001010000010100100101010 9
b1 =
1!
b10111 @
b1 o
b111010 n
b111001 m
b1110000011100100111010 -
b1110000011100100111010 h
b111000 l
b1 c
b110010 b
b110001 a
b1100000011000100110010 .
b1100000011000100110010 \
b110000 `
b1 W
b101010 V
b101001 U
b1010000010100100101010 /
b1010000010100100101010 P
b101000 T
1'
#720
0'
#725
b1110010011101000111011001100010011001000110011001010010010101000101011 "
b1110010011101000111011001100010011001000110011001010010010101000101011 9
b101011 V
b101010 U
b1010010010101000101011 /
b1010010010101000101011 P
b101001 T
b10 W
b110011 b
b110010 a
b1100010011001000110011 .
b1100010011001000110011 \
b110001 `
b10 c
b111011 n
b111010 m
b1110010011101000111011 -
b1110010011101000111011 h
b111001 l
b10 o
b10110 @
b10 =
1'
#730
0'
#735
b1110100011101100111100001100100011001100110100001010100010101100101100 "
b1110100011101100111100001100100011001100110100001010100010101100101100 9
b11 =
b10101 @
b11 o
b111100 n
b111011 m
b1110100011101100111100 -
b1110100011101100111100 h
b111010 l
b11 c
b110100 b
b110011 a
b1100100011001100110100 .
b1100100011001100110100 \
b110010 `
b11 W
b101100 V
b101011 U
b1010100010101100101100 /
b1010100010101100101100 P
b101010 T
1'
#740
0'
#745
b1110110011110000111101001100110011010000110101001010110010110000101101 "
b1110110011110000111101001100110011010000110101001010110010110000101101 9
b101101 V
b101100 U
b1010110010110000101101 /
b1010110010110000101101 P
b101011 T
b100 W
b110101 b
b110100 a
b1100110011010000110101 .
b1100110011010000110101 \
b110011 `
b100 c
b111101 n
b111100 m
b1110110011110000111101 -
b1110110011110000111101 h
b111011 l
b100 o
b10100 @
b100 =
1'
#750
0'
#755
b1111000011110100111110001101000011010100110110001011000010110100101110 "
b1111000011110100111110001101000011010100110110001011000010110100101110 9
b101 =
b10011 @
b101 o
b111110 n
b111101 m
b1111000011110100111110 -
b1111000011110100111110 h
b111100 l
b101 c
b110110 b
b110101 a
b1101000011010100110110 .
b1101000011010100110110 \
b110100 `
b101 W
b101110 V
b101101 U
b1011000010110100101110 /
b1011000010110100101110 P
b101100 T
1'
#760
0'
#765
b110 W
b110 c
b110 o
b10010 @
b110 =
1'
#770
0'
#775
b111 =
0!
b10001 @
b111 o
b111 c
b111 W
1'
#780
0'
#785
0g
0[
0O
b0 ;
b1001000010010100100110001111000011110100111110001101000011010100110110 "
b1001000010010100100110001111000011110100111110001101000011010100110110 9
b0 W
b0 c
b0 o
b10000 @
0>
b0 ?
b0 =
b10 8
1'
