code/verilog/new files/WORKING CODE with FSM [working]/dump.vcd
$date
	Fri Jun  5 10:40:06 2026
$end
$version
	Icarus Verilog
$end
$timescale
	1s
$end
$scope module tb $end
$var wire 4 ! prediction [3:0] $end
$var wire 1 " final_valid $end
$var parameter 32 # DATA_WIDTH $end
$var parameter 32 $ IMAGE_HEIGHT $end
$var parameter 32 % IMAGE_WIDTH $end
$var parameter 32 & KERNEL_SIZE $end
$var reg 1 ' clk $end
$var reg 8 ( data_in [7:0] $end
$var reg 1 ) data_in_valid $end
$var reg 1 * rst $end
$var integer 32 + i [31:0] $end
$scope module DUT $end
$var wire 1 ' clk $end
$var wire 8 , pixel_in [7:0] $end
$var wire 1 ) pixel_in_valid $end
$var wire 1 * rst $end
$var wire 1 - result9_valid $end
$var wire 20 . result9 [19:0] $end
$var wire 1 / result8_valid $end
$var wire 20 0 result8 [19:0] $end
$var wire 1 1 result7_valid $end
$var wire 20 2 result7 [19:0] $end
$var wire 1 3 result6_valid $end
$var wire 20 4 result6 [19:0] $end
$var wire 1 5 result5_valid $end
$var wire 20 6 result5 [19:0] $end
$var wire 1 7 result4_valid $end
$var wire 20 8 result4 [19:0] $end
$var wire 1 9 result3_valid $end
$var wire 20 : result3 [19:0] $end
$var wire 1 ; result2_valid $end
$var wire 20 < result2 [19:0] $end
$var wire 1 = result1_valid $end
$var wire 1 > result16_valid $end
$var wire 20 ? result16 [19:0] $end
$var wire 1 @ result15_valid $end
$var wire 20 A result15 [19:0] $end
$var wire 1 B result14_valid $end
$var wire 20 C result14 [19:0] $end
$var wire 1 D result13_valid $end
$var wire 20 E result13 [19:0] $end
$var wire 1 F result12_valid $end
$var wire 20 G result12 [19:0] $end
$var wire 1 H result11_valid $end
$var wire 20 I result11 [19:0] $end
$var wire 1 J result10_valid $end
$var wire 20 K result10 [19:0] $end
$var wire 20 L result1 [19:0] $end
$var wire 10 M idx [9:0] $end
$var wire 1 N control_out_valid $end
$var wire 72 O control_out [71:0] $end
$var parameter 32 P DATA_WIDTH $end
$var parameter 5 Q DONE $end
$var parameter 5 R IDLE $end
$var parameter 32 S IMAGE_HEIGHT $end
$var parameter 32 T IMAGE_WIDTH $end
$var parameter 32 U KERNEL_SIZE $end
$var parameter 5 V RUN $end
$var reg 48 W acc0 [47:0] $end
$var reg 48 X acc1 [47:0] $end
$var reg 48 Y acc2 [47:0] $end
$var reg 48 Z acc3 [47:0] $end
$var reg 48 [ acc4 [47:0] $end
$var reg 48 \ acc5 [47:0] $end
$var reg 48 ] acc6 [47:0] $end
$var reg 48 ^ acc7 [47:0] $end
$var reg 48 _ acc8 [47:0] $end
$var reg 48 ` acc9 [47:0] $end
$var reg 10 a count1 [9:0] $end
$var reg 10 b count10 [9:0] $end
$var reg 10 c count11 [9:0] $end
$var reg 10 d count12 [9:0] $end
$var reg 10 e count13 [9:0] $end
$var reg 10 f count14 [9:0] $end
$var reg 10 g count15 [9:0] $end
$var reg 10 h count16 [9:0] $end
$var reg 10 i count2 [9:0] $end
$var reg 10 j count3 [9:0] $end
$var reg 10 k count4 [9:0] $end
$var reg 10 l count5 [9:0] $end
$var reg 10 m count6 [9:0] $end
$var reg 10 n count7 [9:0] $end
$var reg 10 o count8 [9:0] $end
$var reg 10 p count9 [9:0] $end
$var reg 48 q dense_out0 [47:0] $end
$var reg 48 r dense_out1 [47:0] $end
$var reg 48 s dense_out2 [47:0] $end
$var reg 48 t dense_out3 [47:0] $end
$var reg 48 u dense_out4 [47:0] $end
$var reg 48 v dense_out5 [47:0] $end
$var reg 48 w dense_out6 [47:0] $end
$var reg 48 x dense_out7 [47:0] $end
$var reg 48 y dense_out8 [47:0] $end
$var reg 48 z dense_out9 [47:0] $end
$var reg 1 { dense_start $end
$var reg 5 | dense_state [4:0] $end
$var reg 1 } fc_running $end
$var reg 1 " final_valid $end
$var reg 12 ~ k_count [11:0] $end
$var reg 48 !" max_val [47:0] $end
$var reg 5 "" pool_col [4:0] $end
$var reg 8 #" pool_count1 [7:0] $end
$var reg 8 $" pool_count10 [7:0] $end
$var reg 8 %" pool_count11 [7:0] $end
$var reg 8 &" pool_count12 [7:0] $end
$var reg 8 '" pool_count13 [7:0] $end
$var reg 8 (" pool_count14 [7:0] $end
$var reg 8 )" pool_count15 [7:0] $end
$var reg 8 *" pool_count16 [7:0] $end
$var reg 8 +" pool_count2 [7:0] $end
$var reg 8 ," pool_count3 [7:0] $end
$var reg 8 -" pool_count4 [7:0] $end
$var reg 8 ." pool_count5 [7:0] $end
$var reg 8 /" pool_count6 [7:0] $end
$var reg 8 0" pool_count7 [7:0] $end
$var reg 8 1" pool_count8 [7:0] $end
$var reg 8 2" pool_count9 [7:0] $end
$var reg 5 3" pool_row [4:0] $end
$var reg 1 4" pool_start $end
$var reg 4 5" prediction [3:0] $end
$scope function max4 $end
$var reg 20 6" a0 [19:0] $end
$var reg 20 7" a1 [19:0] $end
$var reg 20 8" a2 [19:0] $end
$var reg 20 9" a3 [19:0] $end
$upscope $end
$scope module line_buffer_DUT $end
$var wire 1 ' clk $end
$var wire 8 :" data_in [7:0] $end
$var wire 1 ) data_in_valid $end
$var wire 1 * rst $end
$var wire 24 ;" line_buf_3_data_out [23:0] $end
$var wire 24 <" line_buf_2_data_out [23:0] $end
$var wire 24 =" line_buf_1_data_out [23:0] $end
$var wire 24 >" line_buf_0_data_out [23:0] $end
$var parameter 32 ?" DATA_WIDTH $end
$var parameter 32 @" IDLE $end
$var parameter 32 A" IMAGE_WIDTH $end
$var parameter 32 B" KERNEL_SIZE $end
$var parameter 32 C" READ_BUFFER $end
$var parameter 32 D" TOTAL_COUNT_WIDTH $end
$var reg 2 E" current_line_buffer [1:0] $end
$var reg 2 F" current_read_line_buffer [1:0] $end
$var reg 72 G" data_out [71:0] $end
$var reg 1 N data_out_valid $end
$var reg 4 H" line_buf_data_valid [3:0] $end
$var reg 4 I" line_buf_read_data [3:0] $end
$var reg 5 J" pixel_counter [4:0] $end
$var reg 5 K" read_counter [4:0] $end
$var reg 1 L" read_line_buffer $end
$var reg 2 M" read_state [1:0] $end
$var reg 7 N" total_pixel_counter [6:0] $end
$scope module line_buf_0 $end
$var wire 1 ' clk $end
$var wire 8 O" data_in [7:0] $end
$var wire 1 P" data_in_valid $end
$var wire 1 Q" read_data $end
$var wire 1 * rst $end
$var wire 24 R" data_out [23:0] $end
$var parameter 32 S" DATA_WIDTH $end
$var parameter 32 T" IMAGE_WIDTH $end
$var parameter 32 U" KERNEL_SIZE $end
$var reg 8 V" d0 [7:0] $end
$var reg 8 W" d1 [7:0] $end
$var reg 8 X" d2 [7:0] $end
$var reg 5 Y" r_ptr [4:0] $end
$var reg 5 Z" w_ptr [4:0] $end
$upscope $end
$scope module line_buf_1 $end
$var wire 1 ' clk $end
$var wire 8 [" data_in [7:0] $end
$var wire 1 \" data_in_valid $end
$var wire 1 ]" read_data $end
$var wire 1 * rst $end
$var wire 24 ^" data_out [23:0] $end
$var parameter 32 _" DATA_WIDTH $end
$var parameter 32 `" IMAGE_WIDTH $end
$var parameter 32 a" KERNEL_SIZE $end
$var reg 8 b" d0 [7:0] $end
$var reg 8 c" d1 [7:0] $end
$var reg 8 d" d2 [7:0] $end
$var reg 5 e" r_ptr [4:0] $end
$var reg 5 f" w_ptr [4:0] $end
$upscope $end
$scope module line_buf_2 $end
$var wire 1 ' clk $end
$var wire 8 g" data_in [7:0] $end
$var wire 1 h" data_in_valid $end
$var wire 1 i" read_data $end
$var wire 1 * rst $end
$var wire 24 j" data_out [23:0] $end
$var parameter 32 k" DATA_WIDTH $end
$var parameter 32 l" IMAGE_WIDTH $end
$var parameter 32 m" KERNEL_SIZE $end
$var reg 8 n" d0 [7:0] $end
$var reg 8 o" d1 [7:0] $end
$var reg 8 p" d2 [7:0] $end
$var reg 5 q" r_ptr [4:0] $end
$var reg 5 r" w_ptr [4:0] $end
$upscope $end
$scope module line_buf_3 $end
$var wire 1 ' clk $end
$var wire 8 s" data_in [7:0] $end
$var wire 1 t" data_in_valid $end
$var wire 1 u" read_data $end
$var wire 1 * rst $end
$var wire 24 v" data_out [23:0] $end
$var parameter 32 w" DATA_WIDTH $end
$var parameter 32 x" IMAGE_WIDTH $end
$var parameter 32 y" KERNEL_SIZE $end
$var reg 8 z" d0 [7:0] $end
$var reg 8 {" d1 [7:0] $end
$var reg 8 |" d2 [7:0] $end
$var reg 5 }" r_ptr [4:0] $end
$var reg 5 ~" w_ptr [4:0] $end
$upscope $end
$upscope $end
$scope module mac1 $end
$var wire 1 ' clk $end
$var wire 72 !# data_in [71:0] $end
$var wire 1 N data_in_valid $end
$var wire 1 * rst $end
$var wire 72 "# weight [71:0] $end
$var parameter 32 ## DATA_WIDTH $end
$var parameter 32 $# KERNEL_SIZE $end
$var reg 20 %# data_out [19:0] $end
$var reg 1 = data_out_valid $end
$var integer 32 &# i [31:0] $end
$upscope $end
$scope module mac10 $end
$var wire 1 ' clk $end
$var wire 72 '# data_in [71:0] $end
$var wire 1 N data_in_valid $end
$var wire 1 * rst $end
$var wire 72 (# weight [71:0] $end
$var parameter 32 )# DATA_WIDTH $end
$var parameter 32 *# KERNEL_SIZE $end
$var reg 20 +# data_out [19:0] $end
$var reg 1 J data_out_valid $end
$var integer 32 ,# i [31:0] $end
$upscope $end
$scope module mac11 $end
$var wire 1 ' clk $end
$var wire 72 -# data_in [71:0] $end
$var wire 1 N data_in_valid $end
$var wire 1 * rst $end
$var wire 72 .# weight [71:0] $end
$var parameter 32 /# DATA_WIDTH $end
$var parameter 32 0# KERNEL_SIZE $end
$var reg 20 1# data_out [19:0] $end
$var reg 1 H data_out_valid $end
$var integer 32 2# i [31:0] $end
$upscope $end
$scope module mac12 $end
$var wire 1 ' clk $end
$var wire 72 3# data_in [71:0] $end
$var wire 1 N data_in_valid $end
$var wire 1 * rst $end
$var wire 72 4# weight [71:0] $end
$var parameter 32 5# DATA_WIDTH $end
$var parameter 32 6# KERNEL_SIZE $end
$var reg 20 7# data_out [19:0] $end
$var reg 1 F data_out_valid $end
$var integer 32 8# i [31:0] $end
$upscope $end
$scope module mac13 $end
$var wire 1 ' clk $end
$var wire 72 9# data_in [71:0] $end
$var wire 1 N data_in_valid $end
$var wire 1 * rst $end
$var wire 72 :# weight [71:0] $end
$var parameter 32 ;# DATA_WIDTH $end
$var parameter 32 <# KERNEL_SIZE $end
$var reg 20 =# data_out [19:0] $end
$var reg 1 D data_out_valid $end
$var integer 32 ># i [31:0] $end
$upscope $end
$scope module mac14 $end
$var wire 1 ' clk $end
$var wire 72 ?# data_in [71:0] $end
$var wire 1 N data_in_valid $end
$var wire 1 * rst $end
$var wire 72 @# weight [71:0] $end
$var parameter 32 A# DATA_WIDTH $end
$var parameter 32 B# KERNEL_SIZE $end
$var reg 20 C# data_out [19:0] $end
$var reg 1 B data_out_valid $end
$var integer 32 D# i [31:0] $end
$upscope $end
$scope module mac15 $end
$var wire 1 ' clk $end
$var wire 72 E# data_in [71:0] $end
$var wire 1 N data_in_valid $end
$var wire 1 * rst $end
$var wire 72 F# weight [71:0] $end
$var parameter 32 G# DATA_WIDTH $end
$var parameter 32 H# KERNEL_SIZE $end
$var reg 20 I# data_out [19:0] $end
$var reg 1 @ data_out_valid $end
$var integer 32 J# i [31:0] $end
$upscope $end
$scope module mac16 $end
$var wire 1 ' clk $end
$var wire 72 K# data_in [71:0] $end
$var wire 1 N data_in_valid $end
$var wire 1 * rst $end
$var wire 72 L# weight [71:0] $end
$var parameter 32 M# DATA_WIDTH $end
$var parameter 32 N# KERNEL_SIZE $end
$var reg 20 O# data_out [19:0] $end
$var reg 1 > data_out_valid $end
$var integer 32 P# i [31:0] $end
$upscope $end
$scope module mac2 $end
$var wire 1 ' clk $end
$var wire 72 Q# data_in [71:0] $end
$var wire 1 N data_in_valid $end
$var wire 1 * rst $end
$var wire 72 R# weight [71:0] $end
$var parameter 32 S# DATA_WIDTH $end
$var parameter 32 T# KERNEL_SIZE $end
$var reg 20 U# data_out [19:0] $end
$var reg 1 ; data_out_valid $end
$var integer 32 V# i [31:0] $end
$upscope $end
$scope module mac3 $end
$var wire 1 ' clk $end
$var wire 72 W# data_in [71:0] $end
$var wire 1 N data_in_valid $end
$var wire 1 * rst $end
$var wire 72 X# weight [71:0] $end
$var parameter 32 Y# DATA_WIDTH $end
$var parameter 32 Z# KERNEL_SIZE $end
$var reg 20 [# data_out [19:0] $end
$var reg 1 9 data_out_valid $end
$var integer 32 \# i [31:0] $end
$upscope $end
$scope module mac4 $end
$var wire 1 ' clk $end
$var wire 72 ]# data_in [71:0] $end
$var wire 1 N data_in_valid $end
$var wire 1 * rst $end
$var wire 72 ^# weight [71:0] $end
$var parameter 32 _# DATA_WIDTH $end
$var parameter 32 `# KERNEL_SIZE $end
$var reg 20 a# data_out [19:0] $end
$var reg 1 7 data_out_valid $end
$var integer 32 b# i [31:0] $end
$upscope $end
$scope module mac5 $end
$var wire 1 ' clk $end
$var wire 72 c# data_in [71:0] $end
$var wire 1 N data_in_valid $end
$var wire 1 * rst $end
$var wire 72 d# weight [71:0] $end
$var parameter 32 e# DATA_WIDTH $end
$var parameter 32 f# KERNEL_SIZE $end
$var reg 20 g# data_out [19:0] $end
$var reg 1 5 data_out_valid $end
$var integer 32 h# i [31:0] $end
$upscope $end
$scope module mac6 $end
$var wire 1 ' clk $end
$var wire 72 i# data_in [71:0] $end
$var wire 1 N data_in_valid $end
$var wire 1 * rst $end
$var wire 72 j# weight [71:0] $end
$var parameter 32 k# DATA_WIDTH $end
$var parameter 32 l# KERNEL_SIZE $end
$var reg 20 m# data_out [19:0] $end
$var reg 1 3 data_out_valid $end
$var integer 32 n# i [31:0] $end
$upscope $end
$scope module mac7 $end
$var wire 1 ' clk $end
$var wire 72 o# data_in [71:0] $end
$var wire 1 N data_in_valid $end
$var wire 1 * rst $end
$var wire 72 p# weight [71:0] $end
$var parameter 32 q# DATA_WIDTH $end
$var parameter 32 r# KERNEL_SIZE $end
$var reg 20 s# data_out [19:0] $end
$var reg 1 1 data_out_valid $end
$var integer 32 t# i [31:0] $end
$upscope $end
$scope module mac8 $end
$var wire 1 ' clk $end
$var wire 72 u# data_in [71:0] $end
$var wire 1 N data_in_valid $end
$var wire 1 * rst $end
$var wire 72 v# weight [71:0] $end
$var parameter 32 w# DATA_WIDTH $end
$var parameter 32 x# KERNEL_SIZE $end
$var reg 20 y# data_out [19:0] $end
$var reg 1 / data_out_valid $end
$var integer 32 z# i [31:0] $end
$upscope $end
$scope module mac9 $end
$var wire 1 ' clk $end
$var wire 72 {# data_in [71:0] $end
$var wire 1 N data_in_valid $end
$var wire 1 * rst $end
$var wire 72 |# weight [71:0] $end
$var parameter 32 }# DATA_WIDTH $end
$var parameter 32 ~# KERNEL_SIZE $end
$var reg 20 !$ data_out [19:0] $end
$var reg 1 - data_out_valid $end
$var integer 32 "$ i [31:0] $end
$upscope $end
$upscope $end
$upscope $end
$enddefinitions $end
$comment Show the parameter values. $end
$dumpall
b11 ~#
b1000 }#
b11 x#
b1000 w#
b11 r#
b1000 q#
b11 l#
b1000 k#
b11 f#
b1000 e#
b11 `#
b1000 _#
b11 Z#
b1000 Y#
b11 T#
b1000 S#
b11 N#
b1000 M#
b11 H#
b1000 G#
b11 B#
b1000 A#
b11 <#
b1000 ;#
b11 6#
b1000 5#
b11 0#
b1000 /#
b11 *#
b1000 )#
b11 $#
b1000 ##
b11 y"
b11100 x"
b1000 w"
b11 m"
b11100 l"
b1000 k"
b11 a"
b11100 `"
b1000 _"
b11 U"
b11100 T"
b1000 S"
b111 D"
b1 C"
b11 B"
b11100 A"
b0 @"
b1000 ?"
b1 V
b11 U
b11100 T
b11100 S
b0 R
b10 Q
b1000 P
b11 &
b11100 %
b11100 $
b1000 #
$end
#0
$dumpvars
bx "$
bx !$
b1100111100001010101010101101011011101011010010111111110010011111010000 |#
bx {#
bx z#
bx y#
b110110110000011111111000001110001101011111001000111000100011110000001100 v#
bx u#
bx t#
bx s#
b100000111000001101111011100010010111010100111111011101010100010010 p#
bx o#
bx n#
bx m#
b111010010010100011101000000100011100101010110101110010101110011000111000 j#
bx i#
bx h#
bx g#
b111111100001010000000000111001001111001111100010000000000001000100000010 d#
bx c#
bx b#
bx a#
b101010111101110110111001001010001100111000011101000010011110100000100001 ^#
bx ]#
bx \#
bx [#
b101101101110000111011111101101101111011000110011110000101110000111110010 X#
bx W#
bx V#
bx U#
b110101010010010011110100000110101110110000000101111001110001100111110111 R#
bx Q#
bx P#
bx O#
b101101101010001110000001000001110000001111101111110111100100011011001111 L#
bx K#
bx J#
bx I#
b111001011100000000101100111010010010010011111110110110000001111111011100 F#
bx E#
bx D#
bx C#
b101111001110000111001000000000101110000111111101110100011100011011001001 @#
bx ?#
bx >#
bx =#
b111010001111100100110111110111110001101110111010100111001100001111010010 :#
bx 9#
bx 8#
bx 7#
b101111111110100100011011110101000001000000010010101110011110001011011000 4#
bx 3#
bx 2#
bx 1#
b1110011100001010000111101110011011010001001001011101000011001100 .#
bx -#
bx ,#
bx +#
b100110110001010011101101000001011101101000011010110001111110010000011000 (#
bx '#
bx &#
bx %#
b1100001011111100111000111001110001011111100110110110001000100011010 "#
bx !#
bx ~"
bx }"
bx |"
bx {"
bx z"
bx v"
xu"
0t"
bx s"
bx r"
bx q"
bx p"
bx o"
bx n"
bx j"
xi"
0h"
bx g"
bx f"
bx e"
bx d"
bx c"
bx b"
bx ^"
x]"
0\"
bx ["
bx Z"
bx Y"
bx X"
bx W"
bx V"
bx R"
xQ"
0P"
bx O"
bx N"
bx M"
xL"
bx K"
bx J"
bx I"
b0 H"
bx G"
bx F"
bx E"
bx >"
bx ="
bx <"
bx ;"
bx :"
bx 9"
bx 8"
bx 7"
bx 6"
bx 5"
x4"
bx 3"
bx 2"
bx 1"
bx 0"
bx /"
bx ."
bx -"
bx ,"
bx +"
bx *"
bx )"
bx ("
bx '"
bx &"
bx %"
bx $"
bx #"
bx ""
bx !"
b0 ~
x}
b0 |
x{
bx z
bx y
bx x
bx w
bx v
bx u
bx t
bx s
bx r
bx q
bx p
bx o
bx n
bx m
bx l
bx k
bx j
bx i
bx h
bx g
bx f
bx e
bx d
bx c
bx b
bx a
b0 `
b0 _
b0 ^
b0 ]
b0 \
b0 [
b0 Z
b0 Y
b0 X
b0 W
bx O
xN
bx M
bx L
bx K
xJ
bx I
xH
bx G
xF
bx E
xD
bx C
xB
bx A
x@
bx ?
x>
x=
bx <
x;
bx :
x9
bx 8
x7
bx 6
x5
bx 4
x3
bx 2
x1
bx 0
x/
bx .
x-
bx ,
bx +
0*
0)
bx (
0'
x"
bx !
$end
#5
0u"
0i"
0]"
0Q"
b0 I"
b0 O
b0 G"
b0 !#
b0 '#
b0 -#
b0 3#
b0 9#
b0 ?#
b0 E#
b0 K#
b0 Q#
b0 W#
b0 ]#
b0 c#
b0 i#
b0 o#
b0 u#
b0 {#
b0 !"
b0 !
b0 5"
b0 Z"
b0 X"
b0 W"
b0 >"
b0 R"
b0 V"
b0 Y"
b0 f"
b0 d"
b0 c"
b0 ="
b0 ^"
b0 b"
b0 e"
b0 r"
b0 p"
b0 o"
b0 <"
b0 j"
b0 n"
b0 q"
b0 ~"
b0 |"
b0 {"
b0 ;"
b0 v"
b0 z"
b0 }"
b0 N"
0N
0L"
b0 M"
b0 J"
b0 E"
b0 K"
b0 F"
0=
b0 L
b0 %#
0;
b0 <
b0 U#
09
b0 :
b0 [#
07
b0 8
b0 a#
05
b0 6
b0 g#
03
b0 4
b0 m#
01
b0 2
b0 s#
0/
b0 0
b0 y#
0-
b0 .
b0 !$
0J
b0 K
b0 +#
0H
b0 I
b0 1#
0F
b0 G
b0 7#
0D
b0 E
b0 =#
0B
b0 C
b0 C#
0@
b0 A
b0 I#
0>
b0 ?
b0 O#
b0 h
b0 g
b0 f
b0 e
b0 d
b0 c
b0 b
b0 p
b0 o
b0 n
b0 m
b0 l
b0 k
b0 j
b0 i
b0 a
04"
b0 M
b0 ""
b0 3"
b0 *"
b0 )"
b0 ("
b0 '"
b0 &"
b0 %"
b0 $"
b0 2"
b0 1"
b0 0"
b0 /"
b0 ."
b0 -"
b0 ,"
b0 +"
b0 #"
0}
0{
0"
b0 z
b0 y
b0 x
b0 w
b0 v
b0 u
b0 t
b0 s
b0 r
b0 q
1'
#10
1P"
b1 H"
1)
b0 (
b0 ,
b0 :"
b0 O"
b0 ["
b0 g"
b0 s"
0'
b1 +
1*
#15
b1 J"
b1 N"
b1 Z"
1'
#20
b10 +
0'
#25
b10 Z"
b10 N"
b10 J"
1'
#30
b11 +
0'
#35
b11 J"
b11 N"
b11 Z"
1'
#40
b100 +
0'
#45
b100 Z"
b100 N"
b100 J"
1'
#50
b101 +
0'
#55
b101 J"
b101 N"
b101 Z"
1'
#60
b110 +
0'
#65
b110 Z"
b110 N"
b110 J"
1'
#70
b111 +
0'
#75
b111 J"
b111 N"
b111 Z"
1'
#80
b1000 +
0'
#85
b1000 Z"
b1000 N"
b1000 J"
1'
#90
b1001 +
b10 (
b10 ,
b10 :"
b10 O"
b10 ["
b10 g"
b10 s"
0'
#95
b1001 J"
b1001 N"
b1001 Z"
1'
#100
b1010 +
b0 (
b0 ,
b0 :"
b0 O"
b0 ["
b0 g"
b0 s"
0'
#105
b1010 Z"
b1010 N"
b1010 J"
1'
#110
b1011 +
b1000 (
b1000 ,
b1000 :"
b1000 O"
b1000 ["
b1000 g"
b1000 s"
0'
#115
b1011 J"
b1011 N"
b1011 Z"
1'
#120
b1100 +
b0 (
b0 ,
b0 :"
b0 O"
b0 ["
b0 g"
b0 s"
0'
#125
b1100 Z"
b1100 N"
b1100 J"
1'
#130
b1101 +
b1010 (
b1010 ,
b1010 :"
b1010 O"
b1010 ["
b1010 g"
b1010 s"
0'
#135
b1101 J"
b1101 N"
b1101 Z"
1'
#140
b1110 +
b0 (
b0 ,
b0 :"
b0 O"
b0 ["
b0 g"
b0 s"
0'
#145
b1110 Z"
b1110 N"
b1110 J"
1'
#150
b1111 +
b11 (
b11 ,
b11 :"
b11 O"
b11 ["
b11 g"
b11 s"
0'
#155
b1111 J"
b1111 N"
b1111 Z"
1'
#160
b10000 +
b0 (
b0 ,
b0 :"
b0 O"
b0 ["
b0 g"
b0 s"
0'
#165
b10000 Z"
b10000 N"
b10000 J"
1'
#170
b10001 +
b111 (
b111 ,
b111 :"
b111 O"
b111 ["
b111 g"
b111 s"
0'
#175
b10001 J"
b10001 N"
b10001 Z"
1'
#180
b10010 +
b11 (
b11 ,
b11 :"
b11 O"
b11 ["
b11 g"
b11 s"
0'
#185
b10010 Z"
b10010 N"
b10010 J"
1'
#190
b10011 +
b0 (
b0 ,
b0 :"
b0 O"
b0 ["
b0 g"
b0 s"
0'
#195
b10011 J"
b10011 N"
b10011 Z"
1'
#200
b10100 +
0'
#205
b10100 Z"
b10100 N"
b10100 J"
1'
#210
b10101 +
0'
#215
b10101 J"
b10101 N"
b10101 Z"
1'
#220
b10110 +
0'
#225
b10110 Z"
b10110 N"
b10110 J"
1'
#230
b10111 +
b10 (
b10 ,
b10 :"
b10 O"
b10 ["
b10 g"
b10 s"
0'
#235
b10111 J"
b10111 N"
b10111 Z"
1'
#240
b11000 +
0'
#245
b11000 Z"
b11000 N"
b11000 J"
1'
#250
b11001 +
b0 (
b0 ,
b0 :"
b0 O"
b0 ["
b0 g"
b0 s"
0'
#255
b11001 J"
b11001 N"
b11001 Z"
1'
#260
b11010 +
0'
#265
b11010 Z"
b11010 N"
b11010 J"
1'
#270
b11011 +
0'
#275
b11011 J"
b11011 N"
b11011 Z"
1'
#280
b11100 +
0'
#285
1\"
0P"
b10 H"
b0 Z"
b11100 N"
b0 J"
b1 E"
1'
#290
b11101 +
0'
#295
b1 J"
b11101 N"
b1 f"
1'
#300
b11110 +
0'
#305
b10 f"
b11110 N"
b10 J"
1'
#310
b11111 +
0'
#315
b11 J"
b11111 N"
b11 f"
1'
#320
b100000 +
0'
#325
b100 f"
b100000 N"
b100 J"
1'
#330
b100001 +
0'
#335
b101 J"
b100001 N"
b101 f"
1'
#340
b100010 +
0'
#345
b110 f"
b100010 N"
b110 J"
1'
#350
b100011 +
0'
#355
b111 J"
b100011 N"
b111 f"
1'
#360
b100100 +
0'
#365
b1000 f"
b100100 N"
b1000 J"
1'
#370
b100101 +
b100 (
b100 ,
b100 :"
b100 O"
b100 ["
b100 g"
b100 s"
0'
#375
b1001 J"
b100101 N"
b1001 f"
1'
#380
b100110 +
b0 (
b0 ,
b0 :"
b0 O"
b0 ["
b0 g"
b0 s"
0'
#385
b1010 f"
b100110 N"
b1010 J"
1'
#390
b100111 +
b11 (
b11 ,
b11 :"
b11 O"
b11 ["
b11 g"
b11 s"
0'
#395
b1011 J"
b100111 N"
b1011 f"
1'
#400
b101000 +
b0 (
b0 ,
b0 :"
b0 O"
b0 ["
b0 g"
b0 s"
0'
#405
b1100 f"
b101000 N"
b1100 J"
1'
#410
b101001 +
b11 (
b11 ,
b11 :"
b11 O"
b11 ["
b11 g"
b11 s"
0'
#415
b1101 J"
b101001 N"
b1101 f"
1'
#420
b101010 +
b0 (
b0 ,
b0 :"
b0 O"
b0 ["
b0 g"
b0 s"
0'
#425
b1110 f"
b101010 N"
b1110 J"
1'
#430
b101011 +
0'
#435
b1111 J"
b101011 N"
b1111 f"
1'
#440
b101100 +
b1011 (
b1011 ,
b1011 :"
b1011 O"
b1011 ["
b1011 g"
b1011 s"
0'
#445
b10000 f"
b101100 N"
b10000 J"
1'
#450
b101101 +
b0 (
b0 ,
b0 :"
b0 O"
b0 ["
b0 g"
b0 s"
0'
#455
b10001 J"
b101101 N"
b10001 f"
1'
#460
b101110 +
0'
#465
b10010 f"
b101110 N"
b10010 J"
1'
#470
b101111 +
b1000 (
b1000 ,
b1000 :"
b1000 O"
b1000 ["
b1000 g"
b1000 s"
0'
#475
b10011 J"
b101111 N"
b10011 f"
1'
#480
b110000 +
b110 (
b110 ,
b110 :"
b110 O"
b110 ["
b110 g"
b110 s"
0'
#485
b10100 f"
b110000 N"
b10100 J"
1'
#490
b110001 +
b1 (
b1 ,
b1 :"
b1 O"
b1 ["
b1 g"
b1 s"
0'
#495
b10101 J"
b110001 N"
b10101 f"
1'
#500
b110010 +
b0 (
b0 ,
b0 :"
b0 O"
b0 ["
b0 g"
b0 s"
0'
#505
b10110 f"
b110010 N"
b10110 J"
1'
#510
b110011 +
0'
#515
b10111 J"
b110011 N"
b10111 f"
1'
#520
b110100 +
0'
#525
b11000 f"
b110100 N"
b11000 J"
1'
#530
b110101 +
0'
#535
b11001 J"
b110101 N"
b11001 f"
1'
#540
b110110 +
0'
#545
b11010 f"
b110110 N"
b11010 J"
1'
#550
b110111 +
0'
#555
b11011 J"
b110111 N"
b11011 f"
1'
#560
b111000 +
0'
#565
1h"
0\"
b100 H"
b0 f"
b111000 N"
b0 J"
b10 E"
1'
#570
b111001 +
0'
#575
b1 J"
b111001 N"
b1 r"
1'
#580
b111010 +
0'
#585
b10 r"
b111010 N"
b10 J"
1'
#590
b111011 +
0'
#595
b11 J"
b111011 N"
b11 r"
1'
#600
b111100 +
0'
#605
b100 r"
b111100 N"
b100 J"
1'
#610
b111101 +
0'
#615
b101 J"
b111101 N"
b101 r"
1'
#620
b111110 +
0'
#625
b110 r"
b111110 N"
b110 J"
1'
#630
b111111 +
0'
#635
b111 J"
b111111 N"
b111 r"
1'
#640
b1000000 +
0'
#645
b1000 r"
b1000000 N"
b1000 J"
1'
#650
b1000001 +
0'
#655
b1001 J"
b1000001 N"
b1001 r"
1'
#660
b1000010 +
0'
#665
b1010 r"
b1000010 N"
b1010 J"
1'
#670
b1000011 +
b1 (
b1 ,
b1 :"
b1 O"
b1 ["
b1 g"
b1 s"
0'
#675
b1011 J"
b1000011 N"
b1011 r"
1'
#680
b1000100 +
b0 (
b0 ,
b0 :"
b0 O"
b0 ["
b0 g"
b0 s"
0'
#685
b1100 r"
b1000100 N"
b1100 J"
1'
#690
b1000101 +
b1000 (
b1000 ,
b1000 :"
b1000 O"
b1000 ["
b1000 g"
b1000 s"
0'
#695
b1101 J"
b1000101 N"
b1101 r"
1'
#700
b1000110 +
b1011 (
b1011 ,
b1011 :"
b1011 O"
b1011 ["
b1011 g"
b1011 s"
0'
#705
b1110 r"
b1000110 N"
b1110 J"
1'
#710
b1000111 +
b110 (
b110 ,
b110 :"
b110 O"
b110 ["
b110 g"
b110 s"
0'
#715
b1111 J"
b1000111 N"
b1111 r"
1'
#720
b1001000 +
b0 (
b0 ,
b0 :"
b0 O"
b0 ["
b0 g"
b0 s"
0'
#725
b10000 r"
b1001000 N"
b10000 J"
1'
#730
b1001001 +
b100 (
b100 ,
b100 :"
b100 O"
b100 ["
b100 g"
b100 s"
0'
#735
b10001 J"
b1001001 N"
b10001 r"
1'
#740
b1001010 +
0'
#745
b10010 r"
b1001010 N"
b10010 J"
1'
#750
b1001011 +
b0 (
b0 ,
b0 :"
b0 O"
b0 ["
b0 g"
b0 s"
0'
#755
b10011 J"
b1001011 N"
b10011 r"
1'
#760
b1001100 +
0'
#765
b10100 r"
b1001100 N"
b10100 J"
1'
#770
b1001101 +
0'
#775
b10101 J"
b1001101 N"
b10101 r"
1'
#780
b1001110 +
b11 (
b11 ,
b11 :"
b11 O"
b11 ["
b11 g"
b11 s"
0'
#785
b10110 r"
b1001110 N"
b10110 J"
1'
#790
b1001111 +
b100 (
b100 ,
b100 :"
b100 O"
b100 ["
b100 g"
b100 s"
0'
#795
b10111 J"
b1001111 N"
b10111 r"
1'
#800
b1010000 +
b0 (
b0 ,
b0 :"
b0 O"
b0 ["
b0 g"
b0 s"
0'
#805
b11000 r"
b1010000 N"
b11000 J"
1'
