code/verilog/new files/make separate patch for each filter/dump.vcd
$date
	Tue Jun  2 23:30:35 2026
$end
$version
	Icarus Verilog
$end
$timescale
	1s
$end
$scope module tb $end
$var parameter 32 ! DATA_WIDTH $end
$var parameter 32 " IMAGE_HEIGHT $end
$var parameter 32 # IMAGE_WIDTH $end
$var parameter 32 $ KERNEL_SIZE $end
$var reg 1 % clk $end
$var reg 8 & data_in [7:0] $end
$var reg 1 ' data_in_valid $end
$var reg 1 ( rst $end
$var integer 32 ) i [31:0] $end
$scope module DUT $end
$var wire 1 % clk $end
$var wire 8 * pixel_in [7:0] $end
$var wire 1 ' pixel_in_valid $end
$var wire 1 ( rst $end
$var wire 8 + debug_pixels9 [7:0] $end
$var wire 8 , debug_pixels8 [7:0] $end
$var wire 8 - debug_pixels7 [7:0] $end
$var wire 8 . debug_pixels6 [7:0] $end
$var wire 8 / debug_pixels5 [7:0] $end
$var wire 8 0 debug_pixels4 [7:0] $end
$var wire 8 1 debug_pixels3 [7:0] $end
$var wire 8 2 debug_pixels2 [7:0] $end
$var wire 8 3 debug_pixels1 [7:0] $end
$var wire 1 4 control_out_valid $end
$var wire 72 5 control_out [71:0] $end
$var parameter 32 6 DATA_WIDTH $end
$var parameter 32 7 IMAGE_HEIGHT $end
$var parameter 32 8 IMAGE_WIDTH $end
$var parameter 32 9 KERNEL_SIZE $end
$scope begin genblk1[0] $end
$var parameter 2 : p $end
$upscope $end
$scope begin genblk1[1] $end
$var parameter 2 ; p $end
$upscope $end
$scope begin genblk1[2] $end
$var parameter 3 < p $end
$upscope $end
$scope begin genblk1[3] $end
$var parameter 3 = p $end
$upscope $end
$scope begin genblk1[4] $end
$var parameter 4 > p $end
$upscope $end
$scope begin genblk1[5] $end
$var parameter 4 ? p $end
$upscope $end
$scope begin genblk1[6] $end
$var parameter 4 @ p $end
$upscope $end
$scope begin genblk1[7] $end
$var parameter 4 A p $end
$upscope $end
$scope begin genblk1[8] $end
$var parameter 5 B p $end
$upscope $end
$scope module line_buffer_DUT $end
$var wire 1 % clk $end
$var wire 8 C data_in [7:0] $end
$var wire 1 ' data_in_valid $end
$var wire 1 ( rst $end
$var wire 24 D line_buf_3_data_out [23:0] $end
$var wire 24 E line_buf_2_data_out [23:0] $end
$var wire 24 F line_buf_1_data_out [23:0] $end
$var wire 24 G line_buf_0_data_out [23:0] $end
$var parameter 32 H DATA_WIDTH $end
$var parameter 32 I IDLE $end
$var parameter 32 J IMAGE_WIDTH $end
$var parameter 32 K KERNEL_SIZE $end
$var parameter 32 L READ_BUFFER $end
$var parameter 32 M TOTAL_COUNT_WIDTH $end
$var reg 2 N current_line_buffer [1:0] $end
$var reg 2 O current_read_line_buffer [1:0] $end
$var reg 72 P data_out [71:0] $end
$var reg 1 4 data_out_valid $end
$var reg 4 Q line_buf_data_valid [3:0] $end
$var reg 4 R line_buf_read_data [3:0] $end
$var reg 3 S pixel_counter [2:0] $end
$var reg 3 T read_counter [2:0] $end
$var reg 1 U read_line_buffer $end
$var reg 2 V read_state [1:0] $end
$var reg 5 W total_pixel_counter [4:0] $end
$scope module line_buf_0 $end
$var wire 1 % clk $end
$var wire 8 X data_in [7:0] $end
$var wire 1 Y data_in_valid $end
$var wire 1 Z read_data $end
$var wire 1 ( rst $end
$var wire 24 [ data_out [23:0] $end
$var parameter 32 \ DATA_WIDTH $end
$var parameter 32 ] IMAGE_WIDTH $end
$var parameter 32 ^ KERNEL_SIZE $end
$var reg 8 _ d0 [7:0] $end
$var reg 8 ` d1 [7:0] $end
$var reg 8 a d2 [7:0] $end
$var reg 3 b r_ptr [2:0] $end
$var reg 3 c w_ptr [2:0] $end
$upscope $end
$scope module line_buf_1 $end
$var wire 1 % clk $end
$var wire 8 d data_in [7:0] $end
$var wire 1 e data_in_valid $end
$var wire 1 f read_data $end
$var wire 1 ( rst $end
$var wire 24 g data_out [23:0] $end
$var parameter 32 h DATA_WIDTH $end
$var parameter 32 i IMAGE_WIDTH $end
$var parameter 32 j KERNEL_SIZE $end
$var reg 8 k d0 [7:0] $end
$var reg 8 l d1 [7:0] $end
$var reg 8 m d2 [7:0] $end
$var reg 3 n r_ptr [2:0] $end
$var reg 3 o w_ptr [2:0] $end
$upscope $end
$scope module line_buf_2 $end
$var wire 1 % clk $end
$var wire 8 p data_in [7:0] $end
$var wire 1 q data_in_valid $end
$var wire 1 r read_data $end
$var wire 1 ( rst $end
$var wire 24 s data_out [23:0] $end
$var parameter 32 t DATA_WIDTH $end
$var parameter 32 u IMAGE_WIDTH $end
$var parameter 32 v KERNEL_SIZE $end
$var reg 8 w d0 [7:0] $end
$var reg 8 x d1 [7:0] $end
$var reg 8 y d2 [7:0] $end
$var reg 3 z r_ptr [2:0] $end
$var reg 3 { w_ptr [2:0] $end
$upscope $end
$scope module line_buf_3 $end
$var wire 1 % clk $end
$var wire 8 | data_in [7:0] $end
$var wire 1 } data_in_valid $end
$var wire 1 ~ read_data $end
$var wire 1 ( rst $end
$var wire 24 !" data_out [23:0] $end
$var parameter 32 "" DATA_WIDTH $end
$var parameter 32 #" IMAGE_WIDTH $end
$var parameter 32 $" KERNEL_SIZE $end
$var reg 8 %" d0 [7:0] $end
$var reg 8 &" d1 [7:0] $end
$var reg 8 '" d2 [7:0] $end
$var reg 3 (" r_ptr [2:0] $end
$var reg 3 )" w_ptr [2:0] $end
$upscope $end
$upscope $end
$upscope $end
$upscope $end
$enddefinitions $end
$comment Show the parameter values. $end
$dumpall
b11 $"
b1000 #"
b1000 ""
b11 v
b1000 u
b1000 t
b11 j
b1000 i
b1000 h
b11 ^
b1000 ]
b1000 \
b101 M
b1 L
b11 K
b1000 J
b0 I
b1000 H
b1000 B
b111 A
b110 @
b101 ?
b100 >
b11 =
b10 <
b1 ;
b0 :
b11 9
b1000 8
b1000 7
b1000 6
b11 $
b1000 #
b1000 "
b1000 !
$end
#0
$dumpvars
bx )"
bx ("
bx '"
bx &"
bx %"
bx !"
x~
0}
bx |
bx {
bx z
bx y
bx x
bx w
bx s
xr
0q
bx p
bx o
bx n
bx m
bx l
bx k
bx g
xf
0e
bx d
bx c
bx b
bx a
bx `
bx _
bx [
xZ
0Y
bx X
bx W
bx V
xU
bx T
bx S
bx R
b0 Q
bx P
bx O
bx N
bx G
bx F
bx E
bx D
bx C
bx 5
x4
bx 3
bx 2
bx 1
bx 0
bx /
bx .
bx -
bx ,
bx +
bx *
bx )
0(
0'
bx &
0%
$end
#5
0~
0r
0f
0Z
b0 +
b0 ,
b0 -
b0 .
b0 /
b0 0
b0 1
b0 2
b0 3
b0 R
b0 5
b0 P
b0 c
b0 a
b0 `
b0 G
b0 [
b0 _
b0 b
b0 o
b0 m
b0 l
b0 F
b0 g
b0 k
b0 n
b0 {
b0 y
b0 x
b0 E
b0 s
b0 w
b0 z
b0 )"
b0 '"
b0 &"
b0 D
b0 !"
b0 %"
b0 ("
b0 W
04
0U
b0 V
b0 S
b0 N
b0 T
b0 O
1%
#10
1Y
b1 Q
1'
b1 &
b1 *
b1 C
b1 X
b1 d
b1 p
b1 |
0%
b1 )
1(
#15
b1 S
b1 W
b1 c
1%
#20
b10 )
b10 &
b10 *
b10 C
b10 X
b10 d
b10 p
b10 |
0%
#25
b10 c
b10 W
b10 S
1%
#30
b11 )
b11 &
b11 *
b11 C
b11 X
b11 d
b11 p
b11 |
0%
#35
b11 S
b11 W
b11 c
1%
#40
b100 )
b100 &
b100 *
b100 C
b100 X
b100 d
b100 p
b100 |
0%
#45
b100 c
b100 W
b100 S
1%
#50
b101 )
b101 &
b101 *
b101 C
b101 X
b101 d
b101 p
b101 |
0%
#55
b101 S
b101 W
b101 c
1%
#60
b110 )
b110 &
b110 *
b110 C
b110 X
b110 d
b110 p
b110 |
0%
#65
b110 c
b110 W
b110 S
1%
#70
b111 )
b111 &
b111 *
b111 C
b111 X
b111 d
b111 p
b111 |
0%
#75
b111 S
b111 W
b111 c
1%
#80
b1000 )
b1000 &
b1000 *
b1000 C
b1000 X
b1000 d
b1000 p
b1000 |
0%
#85
1e
0Y
b10 Q
b0 c
b1000 W
b0 S
b1 N
1%
#90
b1001 )
b1001 &
b1001 *
b1001 C
b1001 X
b1001 d
b1001 p
b1001 |
0%
#95
b1 S
b1001 W
b1 o
1%
#100
b1010 )
b1010 &
b1010 *
b1010 C
b1010 X
b1010 d
b1010 p
b1010 |
0%
#105
b10 o
b1010 W
b10 S
1%
#110
b1011 )
b1011 &
b1011 *
b1011 C
b1011 X
b1011 d
b1011 p
b1011 |
0%
#115
b11 S
b1011 W
b11 o
1%
#120
b1100 )
b1100 &
b1100 *
b1100 C
b1100 X
b1100 d
b1100 p
b1100 |
0%
#125
b100 o
b1100 W
b100 S
1%
#130
b1101 )
b1101 &
b1101 *
b1101 C
b1101 X
b1101 d
b1101 p
b1101 |
0%
#135
b101 S
b1101 W
b101 o
1%
#140
b1110 )
b1110 &
b1110 *
b1110 C
b1110 X
b1110 d
b1110 p
b1110 |
0%
#145
b110 o
b1110 W
b110 S
1%
#150
b1111 )
b1111 &
b1111 *
b1111 C
b1111 X
b1111 d
b1111 p
b1111 |
0%
#155
b111 S
b1111 W
b111 o
1%
#160
b10000 )
b10000 &
b10000 *
b10000 C
b10000 X
b10000 d
b10000 p
b10000 |
0%
#165
1q
0e
b100 Q
b0 o
b10000 W
b0 S
b10 N
1%
#170
b10001 )
b10001 &
b10001 *
b10001 C
b10001 X
b10001 d
b10001 p
b10001 |
0%
#175
b1 S
b10001 W
b1 {
1%
#180
b10010 )
b10010 &
b10010 *
b10010 C
b10010 X
b10010 d
b10010 p
b10010 |
0%
#185
b10 {
b10010 W
b10 S
1%
#190
b10011 )
b10011 &
b10011 *
b10011 C
b10011 X
b10011 d
b10011 p
b10011 |
0%
#195
b11 S
b10011 W
b11 {
1%
#200
b10100 )
b10100 &
b10100 *
b10100 C
b10100 X
b10100 d
b10100 p
b10100 |
0%
#205
b100 {
b10100 W
b100 S
1%
#210
b10101 )
b10101 &
b10101 *
b10101 C
b10101 X
b10101 d
b10101 p
b10101 |
0%
#215
b101 S
b10101 W
b101 {
1%
#220
b10110 )
b10110 &
b10110 *
b10110 C
b10110 X
b10110 d
b10110 p
b10110 |
0%
#225
b110 {
b10110 W
b110 S
1%
#230
b10111 )
b10111 &
b10111 *
b10111 C
b10111 X
b10111 d
b10111 p
b10111 |
0%
#235
b111 S
b10111 W
b111 {
1%
#240
b11000 )
b11000 &
b11000 *
b11000 C
b11000 X
b11000 d
b11000 p
b11000 |
0%
#245
1}
0q
b1000 Q
b0 {
b11000 W
b0 S
b11 N
1%
#250
b11001 )
b11001 &
b11001 *
b11001 C
b11001 X
b11001 d
b11001 p
b11001 |
0%
#255
1r
1f
1Z
b111 R
b1 S
b1 V
1U
b11001 W
b1 )"
1%
#260
b11010 )
b11010 &
b11010 *
b11010 C
b11010 X
b11010 d
b11010 p
b11010 |
0%
#265
b10011 +
b10010 ,
b10001 -
b1011 .
b1010 /
b1001 0
b11 1
b10 2
b1 3
b100110001001000010001000010110000101000001001000000110000001000000001 5
b100110001001000010001000010110000101000001001000000110000001000000001 P
b11 a
b10 `
b110000001000000001 G
b110000001000000001 [
b1 _
b1 b
b1011 m
b1010 l
b10110000101000001001 F
b10110000101000001001 g
b1001 k
b1 n
b10011 y
b10010 x
b100110001001000010001 E
b100110001001000010001 s
b10001 w
b1 z
b10 )"
14
b10 S
b1 T
1%
#270
b11011 )
b11011 &
b11011 *
b11011 C
b11011 X
b11011 d
b11011 p
b11011 |
0%
#275
b10100 +
b10011 ,
b10010 -
b1100 .
b1011 /
b1010 0
b100 1
b11 2
b10 3
b101000001001100010010000011000000101100001010000001000000001100000010 5
b101000001001100010010000011000000101100001010000001000000001100000010 P
b10 T
b11 S
b11 )"
b10 z
b10100 y
b10011 x
b101000001001100010010 E
b101000001001100010010 s
b10010 w
b10 n
b1100 m
b1011 l
b11000000101100001010 F
b11000000101100001010 g
b1010 k
b10 b
b100 a
b11 `
b1000000001100000010 G
b1000000001100000010 [
b10 _
1%
#280
b11100 )
b11100 &
b11100 *
b11100 C
b11100 X
b11100 d
b11100 p
b11100 |
0%
#285
b10101 +
b10100 ,
b10011 -
b1101 .
b1100 /
b1011 0
b101 1
b100 2
b11 3
b101010001010000010011000011010000110000001011000001010000010000000011 5
b101010001010000010011000011010000110000001011000001010000010000000011 P
b101 a
b100 `
b1010000010000000011 G
b1010000010000000011 [
b11 _
b11 b
b1101 m
b1100 l
b11010000110000001011 F
b11010000110000001011 g
b1011 k
b11 n
b10101 y
b10100 x
b101010001010000010011 E
b101010001010000010011 s
b10011 w
b11 z
b100 )"
b100 S
b11 T
1%
#290
b11101 )
b11101 &
b11101 *
b11101 C
b11101 X
b11101 d
b11101 p
b11101 |
0%
#295
b10110 +
b10101 ,
b10100 -
b1110 .
b1101 /
b1100 0
b110 1
b101 2
b100 3
b101100001010100010100000011100000110100001100000001100000010100000100 5
b101100001010100010100000011100000110100001100000001100000010100000100 P
b100 T
b101 S
b101 )"
b100 z
b10110 y
b10101 x
b101100001010100010100 E
b101100001010100010100 s
b10100 w
b100 n
b1110 m
b1101 l
b11100000110100001100 F
b11100000110100001100 g
b1100 k
b100 b
b110 a
b101 `
b1100000010100000100 G
b1100000010100000100 [
b100 _
1%
#300
b11110 )
b11110 &
b11110 *
b11110 C
b11110 X
b11110 d
b11110 p
b11110 |
0%
#305
b10111 +
b10110 ,
b10101 -
b1111 .
b1110 /
b1101 0
b111 1
b110 2
b101 3
b101110001011000010101000011110000111000001101000001110000011000000101 5
b101110001011000010101000011110000111000001101000001110000011000000101 P
b111 a
b110 `
b1110000011000000101 G
b1110000011000000101 [
b101 _
b101 b
b1111 m
b1110 l
b11110000111000001101 F
b11110000111000001101 g
b1101 k
b101 n
b10111 y
b10110 x
b101110001011000010101 E
b101110001011000010101 s
b10101 w
b101 z
b110 )"
b110 S
b101 T
1%
#310
b11111 )
b11111 &
b11111 *
b11111 C
b11111 X
b11111 d
b11111 p
b11111 |
0%
#315
b11000 +
b10111 ,
b10110 -
b10000 .
b1111 /
b1110 0
b1000 1
b111 2
b110 3
b110000001011100010110000100000000111100001110000010000000011100000110 5
b110000001011100010110000100000000111100001110000010000000011100000110 P
b110 T
b111 S
b111 )"
b110 z
b11000 y
b10111 x
b110000001011100010110 E
b110000001011100010110 s
b10110 w
b110 n
b10000 m
b1111 l
b100000000111100001110 F
b100000000111100001110 g
b1110 k
b110 b
b1000 a
b111 `
b10000000011100000110 G
b10000000011100000110 [
b110 _
1%
#320
b100000 )
b100000 &
b100000 *
b100000 C
b100000 X
b100000 d
b100000 p
b100000 |
0%
#325
1Y
0}
b1 Q
b111 b
b111 n
b111 z
b0 )"
04
b0 S
b0 N
b111 T
1%
#330
b100001 )
b100001 &
b100001 *
b100001 C
b100001 X
b100001 d
b100001 p
b100001 |
0%
#335
b0 +
b0 ,
b0 -
b11000 .
b10111 /
b10110 0
b10000 1
b1111 2
b1110 3
0r
0f
0Z
b110000001011100010110000100000000111100001110 5
b110000001011100010110000100000000111100001110 P
b0 R
b1 O
b0 T
b1 S
0U
b0 V
b0 z
b0 n
b0 b
b1 c
1%
#340
b100010 )
b100010 &
b100010 *
b100010 C
b100010 X
b100010 d
b100010 p
b100010 |
0%
#345
1~
1r
1f
b1110 R
b10 c
b11010 W
b1 V
1U
b10 S
1%
#350
b100011 )
b100011 &
b100011 *
b100011 C
b100011 X
b100011 d
b100011 p
b100011 |
0%
#355
b11011 +
b11010 ,
b11001 -
b10011 .
b10010 /
b10001 0
b1011 1
b1010 2
b1001 3
b110110001101000011001000100110001001000010001000010110000101000001001 5
b110110001101000011001000100110001001000010001000010110000101000001001 P
b1 T
b11 S
14
b1 ("
b11011 '"
b11010 &"
b110110001101000011001 D
b110110001101000011001 !"
b11001 %"
b1 z
b10011 y
b10010 x
b100110001001000010001 E
b100110001001000010001 s
b10001 w
b1 n
b1011 m
b1010 l
b10110000101000001001 F
b10110000101000001001 g
b1001 k
b11 c
1%
#360
b100100 )
b100100 &
b100100 *
b100100 C
b100100 X
b100100 d
b100100 p
b100100 |
0%
#365
b11100 +
b11011 ,
b11010 -
b10100 .
b10011 /
b10010 0
b1100 1
b1011 2
b1010 3
b111000001101100011010000101000001001100010010000011000000101100001010 5
b111000001101100011010000101000001001100010010000011000000101100001010 P
b100 c
b1100 m
b1011 l
b11000000101100001010 F
b11000000101100001010 g
b1010 k
b10 n
b10100 y
b10011 x
b101000001001100010010 E
b101000001001100010010 s
b10010 w
b10 z
b11100 '"
b11011 &"
b111000001101100011010 D
b111000001101100011010 !"
b11010 %"
b10 ("
b100 S
b10 T
1%
#370
b100101 )
b100101 &
b100101 *
b100101 C
b100101 X
b100101 d
b100101 p
b100101 |
0%
#375
b11101 +
b11100 ,
b11011 -
b10101 .
b10100 /
b10011 0
b1101 1
b1100 2
b1011 3
b111010001110000011011000101010001010000010011000011010000110000001011 5
b111010001110000011011000101010001010000010011000011010000110000001011 P
b11 T
b101 S
b11 ("
b11101 '"
b11100 &"
b111010001110000011011 D
b111010001110000011011 !"
b11011 %"
b11 z
b10101 y
b10100 x
b101010001010000010011 E
b101010001010000010011 s
b10011 w
b11 n
b1101 m
b1100 l
b11010000110000001011 F
b11010000110000001011 g
b1011 k
b101 c
1%
#380
b100110 )
b100110 &
b100110 *
b100110 C
b100110 X
b100110 d
b100110 p
b100110 |
0%
#385
b11110 +
b11101 ,
b11100 -
b10110 .
b10101 /
b10100 0
b1110 1
b1101 2
b1100 3
b111100001110100011100000101100001010100010100000011100000110100001100 5
b111100001110100011100000101100001010100010100000011100000110100001100 P
b110 c
b1110 m
b1101 l
b11100000110100001100 F
b11100000110100001100 g
b1100 k
b100 n
b10110 y
b10101 x
b101100001010100010100 E
b101100001010100010100 s
b10100 w
b100 z
b11110 '"
b11101 &"
b111100001110100011100 D
b111100001110100011100 !"
b11100 %"
b100 ("
b110 S
b100 T
1%
#390
b100111 )
b100111 &
b100111 *
b100111 C
b100111 X
b100111 d
b100111 p
b100111 |
0%
#395
b11111 +
b11110 ,
b11101 -
b10111 .
b10110 /
b10101 0
b1111 1
b1110 2
b1101 3
b111110001111000011101000101110001011000010101000011110000111000001101 5
b111110001111000011101000101110001011000010101000011110000111000001101 P
b101 T
b111 S
b101 ("
b11111 '"
b11110 &"
b111110001111000011101 D
b111110001111000011101 !"
b11101 %"
b101 z
b10111 y
b10110 x
b101110001011000010101 E
b101110001011000010101 s
b10101 w
b101 n
b1111 m
b1110 l
b11110000111000001101 F
b11110000111000001101 g
b1101 k
b111 c
1%
#400
b101000 )
b101000 &
b101000 *
b101000 C
b101000 X
b101000 d
b101000 p
b101000 |
0%
#405
b100000 +
b11111 ,
b11110 -
b11000 .
b10111 /
b10110 0
b10000 1
b1111 2
b1110 3
1e
0Y
b1000000001111100011110000110000001011100010110000100000000111100001110 5
b1000000001111100011110000110000001011100010110000100000000111100001110 P
b10 Q
b0 c
b10000 m
b1111 l
b100000000111100001110 F
b100000000111100001110 g
b1110 k
b110 n
b11000 y
b10111 x
b110000001011100010110 E
b110000001011100010110 s
b10110 w
b110 z
b100000 '"
b11111 &"
b1000000001111100011110 D
b1000000001111100011110 !"
b11110 %"
b110 ("
b0 S
b1 N
b110 T
1%
#410
b101001 )
b101001 &
b101001 *
b101001 C
b101001 X
b101001 d
b101001 p
b101001 |
0%
#415
b111 T
b1 S
04
b111 ("
b111 z
b111 n
b1 o
1%
#420
b101010 )
b101010 &
b101010 *
b101010 C
b101010 X
b101010 d
b101010 p
b101010 |
0%
#425
0~
0r
0f
b1000 +
b111 ,
b110 -
b100000 .
b11111 /
b11110 0
b11000 1
b10111 2
b10110 3
b0 R
b10000000011100000110001000000001111100011110000110000001011100010110 5
b10000000011100000110001000000001111100011110000110000001011100010110 P
b10 o
b0 n
b0 z
b0 ("
0U
b0 V
b10 S
b0 T
b10 O
1%
#430
b101011 )
b101011 &
b101011 *
b101011 C
b101011 X
b101011 d
b101011 p
b101011 |
0%
#435
1~
1r
1Z
b1101 R
b11 S
b1 V
1U
b11011 W
b11 o
1%
#440
b101100 )
b101100 &
b101100 *
b101100 C
b101100 X
b101100 d
b101100 p
b101100 |
0%
#445
b100011 +
b100010 ,
b100001 -
b11011 .
b11010 /
b11001 0
b10011 1
b10010 2
b10001 3
b1000110010001000100001000110110001101000011001000100110001001000010001 5
b1000110010001000100001000110110001101000011001000100110001001000010001 P
b100011 a
b100010 `
b1000110010001000100001 G
b1000110010001000100001 [
b100001 _
b1 b
b100 o
b10011 y
b10010 x
b100110001001000010001 E
b100110001001000010001 s
b10001 w
b1 z
b11011 '"
b11010 &"
b110110001101000011001 D
b110110001101000011001 !"
b11001 %"
b1 ("
14
b100 S
b1 T
1%
#450
b101101 )
b101101 &
b101101 *
b101101 C
b101101 X
b101101 d
b101101 p
b101101 |
0%
#455
b100100 +
b100011 ,
b100010 -
b11100 .
b11011 /
b11010 0
b10100 1
b10011 2
b10010 3
b1001000010001100100010000111000001101100011010000101000001001100010010 5
b1001000010001100100010000111000001101100011010000101000001001100010010 P
b10 T
b101 S
b10 ("
b11100 '"
b11011 &"
b111000001101100011010 D
b111000001101100011010 !"
b11010 %"
b10 z
b10100 y
b10011 x
b101000001001100010010 E
b101000001001100010010 s
b10010 w
b101 o
b10 b
b100100 a
b100011 `
b1001000010001100100010 G
b1001000010001100100010 [
b100010 _
1%
#460
b101110 )
b101110 &
b101110 *
b101110 C
b101110 X
b101110 d
b101110 p
b101110 |
0%
#465
b100101 +
b100100 ,
b100011 -
b11101 .
b11100 /
b11011 0
b10101 1
b10100 2
b10011 3
b1001010010010000100011000111010001110000011011000101010001010000010011 5
b1001010010010000100011000111010001110000011011000101010001010000010011 P
b100101 a
b100100 `
b1001010010010000100011 G
b1001010010010000100011 [
b100011 _
b11 b
b110 o
b10101 y
b10100 x
b101010001010000010011 E
b101010001010000010011 s
b10011 w
b11 z
b11101 '"
b11100 &"
b111010001110000011011 D
b111010001110000011011 !"
b11011 %"
b11 ("
b110 S
b11 T
1%
#470
b101111 )
b101111 &
b101111 *
b101111 C
b101111 X
b101111 d
b101111 p
b101111 |
0%
#475
b100110 +
b100101 ,
b100100 -
b11110 .
b11101 /
b11100 0
b10110 1
b10101 2
b10100 3
b1001100010010100100100000111100001110100011100000101100001010100010100 5
b1001100010010100100100000111100001110100011100000101100001010100010100 P
b100 T
b111 S
b100 ("
b11110 '"
b11101 &"
b111100001110100011100 D
b111100001110100011100 !"
b11100 %"
b100 z
b10110 y
b10101 x
b101100001010100010100 E
b101100001010100010100 s
b10100 w
b111 o
b100 b
b100110 a
b100101 `
b1001100010010100100100 G
b1001100010010100100100 [
b100100 _
1%
#480
b110000 )
b110000 &
b110000 *
b110000 C
b110000 X
b110000 d
b110000 p
b110000 |
0%
#485
b100111 +
b100110 ,
b100101 -
b11111 .
b11110 /
b11101 0
b10111 1
b10110 2
b10101 3
1q
0e
b1001110010011000100101000111110001111000011101000101110001011000010101 5
b1001110010011000100101000111110001111000011101000101110001011000010101 P
b100 Q
b100111 a
b100110 `
b1001110010011000100101 G
b1001110010011000100101 [
b100101 _
b101 b
b0 o
b10111 y
b10110 x
b101110001011000010101 E
b101110001011000010101 s
b10101 w
b101 z
b11111 '"
b11110 &"
b111110001111000011101 D
b111110001111000011101 !"
b11101 %"
b101 ("
b0 S
b10 N
b101 T
1%
#490
b110001 )
b110001 &
b110001 *
b110001 C
b110001 X
b110001 d
b110001 p
b110001 |
0%
#495
b101000 +
b100111 ,
b100110 -
b100000 .
b11111 /
b11110 0
b11000 1
b10111 2
b10110 3
b1010000010011100100110001000000001111100011110000110000001011100010110 5
b1010000010011100100110001000000001111100011110000110000001011100010110 P
b110 T
b1 S
b110 ("
b100000 '"
b11111 &"
b1000000001111100011110 D
b1000000001111100011110 !"
b11110 %"
b110 z
b11000 y
b10111 x
b110000001011100010110 E
b110000001011100010110 s
b10110 w
b1 {
b110 b
b101000 a
b100111 `
b1010000010011100100110 G
b1010000010011100100110 [
b100110 _
1%
#500
b110010 )
b110010 &
b110010 *
b110010 C
b110010 X
b110010 d
b110010 p
b110010 |
0%
#505
b111 b
b10 {
b111 z
b111 ("
04
b10 S
b111 T
1%
#510
b110011 )
b110011 &
b110011 *
b110011 C
b110011 X
b110011 d
b110011 p
b110011 |
0%
#515
b10000 +
b1111 ,
b1110 -
b101000 .
b100111 /
b100110 0
b100000 1
b11111 2
b11110 3
0~
0r
0Z
b100000000111100001110001010000010011100100110001000000001111100011110 5
b100000000111100001110001010000010011100100110001000000001111100011110 P
b0 R
b11 O
b0 T
b11 S
0U
b0 V
b0 ("
b0 z
b11 {
b0 b
1%
#520
b110100 )
b110100 &
b110100 *
b110100 C
b110100 X
b110100 d
b110100 p
b110100 |
0%
#525
1~
1f
1Z
b1011 R
b100 {
b11100 W
b1 V
1U
b100 S
1%
#530
b110101 )
b110101 &
b110101 *
b110101 C
b110101 X
b110101 d
b110101 p
b110101 |
0%
#535
b101011 +
b101010 ,
b101001 -
b100011 .
b100010 /
b100001 0
b11011 1
b11010 2
b11001 3
b1010110010101000101001001000110010001000100001000110110001101000011001 5
b1010110010101000101001001000110010001000100001000110110001101000011001 P
b1 T
b101 S
14
b1 ("
b11011 '"
b11010 &"
b110110001101000011001 D
b110110001101000011001 !"
b11001 %"
b101 {
b1 n
b101011 m
b101010 l
b1010110010101000101001 F
b1010110010101000101001 g
b101001 k
b1 b
b100011 a
b100010 `
b1000110010001000100001 G
b1000110010001000100001 [
b100001 _
1%
#540
b110110 )
b110110 &
b110110 *
b110110 C
b110110 X
b110110 d
b110110 p
b110110 |
0%
#545
b101100 +
b101011 ,
b101010 -
b100100 .
b100011 /
b100010 0
b11100 1
b11011 2
b11010 3
b1011000010101100101010001001000010001100100010000111000001101100011010 5
b1011000010101100101010001001000010001100100010000111000001101100011010 P
b100100 a
b100011 `
b1001000010001100100010 G
b1001000010001100100010 [
b100010 _
b10 b
b101100 m
b101011 l
b1011000010101100101010 F
b1011000010101100101010 g
b101010 k
b10 n
b110 {
b11100 '"
b11011 &"
b111000001101100011010 D
b111000001101100011010 !"
b11010 %"
b10 ("
b110 S
b10 T
1%
#550
b110111 )
b110111 &
b110111 *
b110111 C
b110111 X
b110111 d
b110111 p
b110111 |
0%
#555
b101101 +
b101100 ,
b101011 -
b100101 .
b100100 /
b100011 0
b11101 1
b11100 2
b11011 3
b1011010010110000101011001001010010010000100011000111010001110000011011 5
b1011010010110000101011001001010010010000100011000111010001110000011011 P
b11 T
b111 S
b11 ("
b11101 '"
b11100 &"
b111010001110000011011 D
b111010001110000011011 !"
b11011 %"
b111 {
b11 n
b101101 m
b101100 l
b1011010010110000101011 F
b1011010010110000101011 g
b101011 k
b11 b
b100101 a
b100100 `
b1001010010010000100011 G
b1001010010010000100011 [
b100011 _
1%
#560
b111000 )
b111000 &
b111000 *
b111000 C
b111000 X
b111000 d
b111000 p
b111000 |
0%
#565
b101110 +
b101101 ,
b101100 -
b100110 .
b100101 /
b100100 0
b11110 1
b11101 2
b11100 3
1}
0q
b1011100010110100101100001001100010010100100100000111100001110100011100 5
b1011100010110100101100001001100010010100100100000111100001110100011100 P
b1000 Q
b100110 a
b100101 `
b1001100010010100100100 G
b1001100010010100100100 [
b100100 _
b100 b
b101110 m
b101101 l
b1011100010110100101100 F
b1011100010110100101100 g
b101100 k
b100 n
b0 {
b11110 '"
b11101 &"
b111100001110100011100 D
b111100001110100011100 !"
b11100 %"
b100 ("
b0 S
b11 N
b100 T
1%
#570
b111001 )
b111001 &
b111001 *
b111001 C
b111001 X
b111001 d
b111001 p
b111001 |
0%
#575
b101111 +
b101110 ,
b101101 -
b100111 .
b100110 /
b100101 0
b11111 1
b11110 2
b11101 3
b1011110010111000101101001001110010011000100101000111110001111000011101 5
b1011110010111000101101001001110010011000100101000111110001111000011101 P
b101 T
b1 S
b101 ("
b11111 '"
b11110 &"
b111110001111000011101 D
b111110001111000011101 !"
b11101 %"
b1 )"
b101 n
b101111 m
b101110 l
b1011110010111000101101 F
b1011110010111000101101 g
b101101 k
b101 b
b100111 a
b100110 `
b1001110010011000100101 G
b1001110010011000100101 [
b100101 _
1%
#580
b111010 )
b111010 &
b111010 *
b111010 C
b111010 X
b111010 d
b111010 p
b111010 |
0%
#585
b110000 +
b101111 ,
b101110 -
b101000 .
b100111 /
b100110 0
b100000 1
b11111 2
b11110 3
b1100000010111100101110001010000010011100100110001000000001111100011110 5
b1100000010111100101110001010000010011100100110001000000001111100011110 P
b101000 a
b100111 `
b1010000010011100100110 G
b1010000010011100100110 [
b100110 _
b110 b
b110000 m
b101111 l
b1100000010111100101110 F
b1100000010111100101110 g
b101110 k
b110 n
b10 )"
b100000 '"
b11111 &"
b1000000001111100011110 D
b1000000001111100011110 !"
b11110 %"
b110 ("
b10 S
b110 T
1%
#590
b111011 )
b111011 &
b111011 *
b111011 C
b111011 X
b111011 d
b111011 p
b111011 |
0%
#595
b111 T
b11 S
04
b111 ("
b11 )"
b111 n
b111 b
1%
#600
b111100 )
b111100 &
b111100 *
b111100 C
b111100 X
b111100 d
b111100 p
b111100 |
0%
#605
0~
0f
0Z
b11000 +
b10111 ,
b10110 -
b110000 .
b101111 /
b101110 0
b101000 1
b100111 2
b100110 3
b0 R
b110000001011100010110001100000010111100101110001010000010011100100110 5
b110000001011100010110001100000010111100101110001010000010011100100110 P
b0 b
b0 n
b100 )"
b0 ("
0U
b0 V
b100 S
b0 T
b0 O
1%
#610
b111101 )
b111101 &
b111101 *
b111101 C
b111101 X
b111101 d
b111101 p
b111101 |
0%
#615
1r
1f
1Z
b111 R
b101 S
b1 V
1U
b11101 W
b101 )"
1%
